Z0111C0,市高往東  環河中華,45.451614,0.4,31.5,0,121.50695500216676,25.04994799574932,121.50705798692283,25.050408979818556
Z0120C0,市高往東  中華承德,62.01923,1.8,54.0,0,121.50705798692283,25.050408979818556,121.51466999479653,25.048847032913205
Z0130A0,市高往東  承德中山,76.97143,1.6,70.0,0,121.51466999479653,25.048847032913205,121.53046697738932,25.045874039619246
Z0130A1,市高往東  中山林森,79.854546,1.3333334,55.0,0,121.51466999479653,25.048847032913205,121.53046697738932,25.045874039619246
Z0140C0,市高往東  新生建國,78.954544,1.6,44.0,0,121.53046697738932,25.045874039619246,121.53615703699234,25.044318028422193
Z0140C1,市高往東  建國復興,76.891304,1.5,46.0,0,121.53046697738932,25.045874039619246,121.53615703699234,25.044318028422193
Z0150C0,市高往東  復興敦化,77.14493,1.6666666,69.0,0,121.53615703699234,25.044318028422193,121.5576310475605,25.044760982709526
Z0150C1,市高往東  敦化上方,58.041668,1.3999999,80.5,0,121.53615703699234,25.044318028422193,121.5576310475605,25.044760982709526
Z0150C2,市高往東  敦化延吉,74.64557,1.9333332,79.0,0,121.53615703699234,25.044318028422193,121.5576310475605,25.044760982709526
Z0160C0,市高往東  延吉永吉,77.08,1.5,50.0,0,121.5576310475605,25.044760982709526,121.56922995528285,25.045546039344874
Z0380F0,正氣橋  麥一市民,70.9,0.625,10.0,0,121.56977204249891,25.04618901466344,121.56977100926193,25.045943997665272
Z0390G0,市高往西  永吉光復,72.06,2.0,50.0,0,121.56977100926193,25.045943997665272,121.56751202127087,25.045890982790404
Z03A0G1,市高往西  光復延吉,75.469696,2.6,66.5,0,121.56751202127087,25.045890982790404,121.55766704817091,25.045468014863655
Z03B0G0,市高往西  延吉復興,77.942856,1.6666666,70.0,0,121.55766704817091,25.045468014863655,121.53612602033242,25.04502503847536
Z03C0G0,市高往西  復興建國,68.28302,2.0,60.0,0,121.53612602033242,25.04502503847536,121.53057103606585,25.04651899493232
Z03C0G1,市高往西  建國新生,77.58,1.8,50.0,0,121.53612602033242,25.04502503847536,121.53057103606585,25.04651899493232
Z03D0G0,市高往西  新生林森,63.877777,2.2666667,108.0,0,121.53057103606585,25.04651899493232,121.51517795173564,25.049521024485752
Z03D0G1,市高往西  林森中山,72.989586,2.2,96.0,0,121.53057103606585,25.04651899493232,121.51517795173564,25.049521024485752
Z03D0G2,市高往西  中山承德,57.793816,2.6,105.5,0,121.53057103606585,25.04651899493232,121.51517795173564,25.049521024485752
Z03E0G0,市高往西  承德重慶,71.522224,3.7,91.0,0,121.51517795173564,25.049521024485752,121.50722899109087,25.051022035442397
Z03E0G1,市高往西  重慶中華,68.48864,3.6,88.0,0,121.51517795173564,25.049521024485752,121.50722899109087,25.051022035442397
Z5062G0,市高往西  中華環河,55.117645,3.2,34.0,0,121.50722899109087,25.051022035442397,121.49786895754552,25.040064961617485
Z1001B0,建國快往北 辛亥高架接建高,87.9375,0.5,16.5,0,121.5369950386963,25.022828970598344,121.53770600753032,25.022928959930677
Z1010A0,建國快往北 辛亥信義,76.58696,0.8,46.5,0,121.53770600753032,25.022928959930677,121.53806600958025,25.035568969284725
Z1010A1,建國快往北 和平信義,88.54054,0.53333336,38.0,0,121.53770600753032,25.022928959930677,121.53806600958025,25.035568969284725
Z1011A0,建國快往北 信義路上匝道,47.0,0.75,7.0,0,121.53781803221807,25.034400007927143,121.53806600958025,25.035568969284725
Z1020A0,建國快往北 信義仁愛,71.21277,1.3333333,47.0,0,121.53806600958025,25.035568969284725,121.53796295884571,25.035707020623164
Z1030A0,建國快往北 仁愛忠孝,69.68657,2.4666667,67.5,0,121.53796295884571,25.035707020623164,121.53712002297962,25.04202403741865
Z1040A0,建國快往北 忠孝長安,78.5,2.6666665,81.0,0,121.53712002297962,25.04202403741865,121.53683603132117,25.046082009028336
Z1050A0,建國快往北 南京東路,85.60317,0.8,63.5,0,121.5370319884134,25.049729001522422,121.5368850310217,25.049528026299306
Z1060A0,建國快往北 南京民權,82.922226,2.7333333,92.0,0,121.5368850310217,25.049528026299306,121.53710502725764,25.061757993861008
Z1070A0,建國快往北 民權民族,81.08889,4.8,100.0,0,121.53710502725764,25.061757993861008,121.53436104509713,25.0672949565866
Z1080A0,建國快往北 民族濱江,81.31579,1.2,38.0,0,121.53436104509713,25.0672949565866,121.5334229738754,25.068942969260817
Z10D2A0,建國快往北 民權東路下匝道,62.0,1.8,23.0,0,121.53710502725764,25.061757993861008,121.53748804599242,25.061470960429975
Z10E2A0,建國快往北 南京東路下匝道,66.0,1.8,23.0,0,121.5370319884134,25.049729001522422,121.53717196009097,25.050782973455014
Z1210E0,建國快往南 濱江民權,68.51428,2.2,36.5,0,121.53341899187797,25.0689390112276,121.53435399475973,25.067292002705855
Z1220E0,建國快往南 民權東路,75.63333,1.6,30.5,0,121.53435399475973,25.067292002705855,121.53669398558787,25.061278014016768
Z1221E0,建國快往南 民權上匝道,47.666668,1.0,9.0,0,121.53643703629278,25.06176898515346,121.53669398558787,25.061278014016768
Z1230E0,建國快往南 民權長春,65.625,1.0,37.0,0,121.53669398558787,25.061278014016768,121.53659298978877,25.05335797395665
Z1240E0,建國快往南 長春長安,66.416664,3.0000002,60.0,0,121.53659298978877,25.05335797395665,121.53635203703179,25.046155981757778
Z1241E0,建國快往南 長安東路上匝道,38.4375,1.2,16.0,0,121.53670903176034,25.04837000013534,121.53635203703179,25.046155981757778
Z1250E0,建國快往南 長安忠孝,89.542854,2.2,80.0,0,121.53635203703179,25.046155981757778,121.53637299011893,25.04302199114429
Z1260E0,建國快往南 忠孝仁愛,75.565216,0.6,26.5,0,121.53637299011893,25.04302199114429,121.53756997310371,25.039532015265888
Z1270E0,建國快往南 仁愛信義,80.354836,2.0,64.0,0,121.53756997310371,25.039532015265888,121.53758001101663,25.034604994102036
Z1280E0,建國快往南 信義和平,52.42857,43.2,31.5,0,121.53758001101663,25.034604994102036,121.53736502444757,25.027767987951847
Z1290E0,建國快往南 和平辛亥,40.0,80.333336,14.0,1,121.53736502444757,25.027767987951847,121.53728803943996,25.024059976404892
Z12B2E0,建國快往南 民權下匝道,62.42857,1.6,21.0,0,121.53435399475973,25.067292002705855,121.5353979540123,25.06558798954165
Z12C2E0,建國快往南 忠孝東路下匝道,34.454544,0.5,11.0,0,121.53637299011893,25.04302199114429,121.5364859875709,25.04182003660262
Z12E2E0,建國快往南 仁愛路下匝道,69.0,1.6,18.0,0,121.53758001101663,25.034604994102036,121.53727603605319,25.035456990261316
Z12F2E0,建國快往南 和平東路下匝道,49.142857,1.25,7.0,0,121.53736502444757,25.027767987951847,121.53698903509233,25.026846043665994
Z12G2E0,建國快往南 辛亥路下匝道,60.736843,0.7,19.0,0,121.53728803943996,25.024059976404892,121.53759697437962,25.022260011056854
Z2101B0,基隆快往東 水快上匝道,64.809525,2.2,21.5,0,121.53455102692638,25.006490036995686,121.53082702915496,25.020960005436457
Z2110C0,基隆快往東 水源辛亥,71.17242,1.3,29.5,0,121.53082702915496,25.020960005436457,121.54466601520653,25.017366963262493
Z2120C0,基隆快往東 辛亥敦化,71.55,1.2,20.0,0,121.54466601520653,25.017366963262493,121.54707896667814,25.01946002540244
Z2130C0,基隆快往東 敦化樂業,62.5,1.2,18.0,0,121.54707896667814,25.01946002540244,121.55023601676832,25.02239803190858
ZEFM0C0,基隆快往東 辛亥下匝道,53.857143,0.25,7.0,0,121.54466601520653,25.017366963262493,121.54664904866901,25.01914598458858
ZEWN0C0,基隆快往東 敦化下匝道,28.0,2.0,6.0,0,121.54707896667814,25.01946002540244,121.54869795558517,25.020952993094944
Z2310G0,基隆快往西 樂業敦化,120.0,0.8,19.0,0,121.55023004487393,25.022392005193954,121.54707595427135,25.01945100839417
Z2320G0,基隆快往西 敦化羅斯福,68.333336,0.625,6.0,0,121.54707595427135,25.01945100839417,121.5446589762734,25.0173659959567
Z2330G0,基隆快往西 羅斯福水源,75.458336,0.8,24.0,0,121.5446589762734,25.0173659959567,121.53082403497338,25.02095496038744
Z3110C0,辛亥高架 汀州路地下道,51.142857,0.6,14.0,0,121.53068998447294,25.02097999540319,121.53331097350762,25.022527964276676
Z3120C0,辛亥高架 泰順新生,77.454544,0.3,11.0,0,121.53331097350762,25.022527964276676,121.5353529729875,25.022591044004606
Z3132C0,辛亥高架 辛亥路下匝道,81.666664,0.0,3.0,0,121.5353529729875,25.022591044004606,121.5369950386963,25.022828970598344
Z3310G0,辛亥高架 建高接辛高,55.333332,0.5,3.0,0,121.53566595355949,25.02258504141898,121.53534897052623,25.02258203031749
Z3311G0,辛亥高架 辛亥上匝道,59.0,0.0,1.0,0,121.53566595355949,25.02258504141898,121.53534897052623,25.02258203031749
Z4010A0,水源快往北 中正路-景美,73.62963,0.8,27.5,0,121.5371379683946,24.990059003543227,121.53586699078697,24.995892962812984
Z4011A0,水源快往北 景美上匝道,120.0,0.75,7.0,0,121.53992495498447,24.999624963855496,121.53586699078697,24.995892962812984
Z4020A0,水源快往北 景美-基隆快,67.2,1.1333333,25.0,0,121.53586699078697,24.995892962812984,121.53455102692638,25.006490036995686
Z4031A0,水源快往北 福和橋上匝道,56.0,0.0,2.0,0,121.53061701182267,25.008151034229655,121.53337597530965,25.00819497290498
Z4050G0,水源快往北 師大路-泉州街,55.7,0.7,10.0,0,121.5229210408716,25.0203360131995,121.5123870141037,25.024255957138458
Z4060G0,水源快往北 泉州街-青年路,51.166668,0.8333333,6.0,1,121.5123870141037,25.024255957138458,121.50408595772407,25.020045991620133
Z4070G0,水源快往北 青年路-萬大路,48.545456,1.0,11.0,0,121.50408595772407,25.020045991620133,121.49698896607411,25.016620954536425
Z4080G0,水源快往北 華中橋,60.0,0.8,9.0,0,121.49698896607411,25.016620954536425,121.4935469605853,25.018881962254582
Z4081G0,水源快往北 萬大路上匝道,45.916668,0.2,2.0,0,121.49585099718782,25.017006012311093,121.4935469605853,25.018881962254582
Z40A2G0,水源快往北 萬大路下匝道,39.0,1.5,4.0,0,121.49698896607411,25.016620954536425,121.49585099718782,25.017006012311093
Z2PK0E0,水源快往南 景美下匝道,91.882355,1.0,17.5,0,121.53529196973624,24.996016009774245,121.5358380378461,24.996001043550997
Z4210D0,水源快往南 西園路-華中橋,79.48,1.3333333,26.0,0,121.49067097529745,25.024055037217252,121.49489795980558,25.016514986865523
Z4220D0,水源快往南 華中橋,61.0,0.6,11.0,0,121.49489795980558,25.016514986865523,121.49758002879015,25.016043975347525
Z4230B0,水源快往南 華中橋-富民街,63.272728,0.6,11.0,0,121.49758002879015,25.016043975347525,121.50058604198307,25.01744895626074
Z4231C0,水源快往南 富民街上匝道,25.333334,2.0,3.5,1,121.50034704313059,25.018006977425465,121.50058604198307,25.01744895626074
Z4250B0,水源快往南 富民街-泉州街,66.85714,0.6,14.0,0,121.50058604198307,25.01744895626074,121.5085759588811,25.02230298957336
Z4261E0,水源快往南 泉州街上匝道,52.5,3.0,6.5,0,121.51241602079463,25.024225974078846,121.51359701562713,25.02389101794865
Z4270C0,水源快往南 泉州街-中正橋,58.789474,1.1,19.0,0,121.51359701562713,25.02389101794865,121.51730102660136,25.021244041005257
Z4271C0,水源快往南 中正橋上匝道,33.083332,2.25,12.0,0,121.51642001492947,25.021821021471077,121.51730102660136,25.021244041005257
Z4280C0,水源快往南 中正橋-師大路,59.36842,1.1,19.0,0,121.51730102660136,25.021244041005257,121.51981897122256,25.02061899909614
Z4290C0,水源快往南 師大路,39.36842,0.75,19.0,0,121.51981897122256,25.02061899909614,121.52318904068959,25.01904603602133
Z42A0D0,水源快往南 師大路-永福橋,71.375,0.5,8.0,0,121.52318904068959,25.01904603602133,121.52660400447135,25.013640041462082
Z42B0D0,水源快往南 永福橋-基隆路,57.227272,1.0,22.0,0,121.52660400447135,25.013640041462082,121.53301296988704,25.007735027652277
Z42B1E0,水源快往南 基高上匝道,65.47369,3.4,38.0,0,121.53082403497338,25.02095496038744,121.53301296988704,25.007735027652277
Z42C0E0,水源快往南 基隆路-景美,75.566666,0.7333334,30.0,0,121.53301296988704,25.007735027652277,121.53529196973624,24.996016009774245
Z42F2E0,水源快往南 泉州街下匝道,47.0,1.0,3.0,0,121.5085759588811,25.02230298957336,121.51241602079463,25.024225974078846
Z42I2E0,水源快往南 永福橋下匝道,56.0,1.0,1.0,0,121.52660400447135,25.013640041462082,121.52792004478408,25.011740011705488
Z42K2C0,水源快往南 華中橋下匝道,43.2,2.6,15.5,0,121.49489795980558,25.016514986865523,121.49575200593151,25.01650997505572
Z0112A0,環河快往北 市民下匝道,51.083332,2.4,24.0,0,121.50563204546309,25.047946010486864,121.50705798692283,25.050408979818556
Z5051A0,環河快往北 華江橋上匝道,44.857143,3.6,28.0,0,121.489444030584,25.03540401521711,121.49194899258852,25.03635895450327
Z5060B0,環河快往北 華江貴陽,72.333336,1.3,28.5,0,121.49194899258852,25.03635895450327,121.49786895754552,25.040064961617485
Z5070A0,環河快往北 貴陽市民,75.69811,1.7333333,53.0,0,121.49786895754552,25.040064961617485,121.50563204546309,25.047946010486864
Z5080A0,環河快往北 市民民生,75.5,0.5,22.0,0,121.50563204546309,25.047946010486864,121.50849202821678,25.05703096503651
Z50C2A0,環河快往北 貴陽街下匝道,60.0,0.0,1.0,0,121.49786895754552,25.040064961617485,121.49770796859087,25.039437956726303
Z5250E0,環河快往南 民生西-忠孝橋,67.40426,2.0,48.0,0,121.50849004598744,25.057054986526346,121.50682002292483,25.05206996782748
Z5260E0,環河快往南 忠孝橋,67.878784,1.4,33.0,0,121.50682002292483,25.05206996782748,121.50345902004572,25.046864963199237
Z5261E0,環河快往南 忠孝橋上匝道,59.909092,1.25,11.0,0,121.50430101117635,25.049966960512354,121.50345902004572,25.046864963199237
Z5261F0,環河快往南 市民上匝道,36.744186,3.8,43.0,0,121.50722899109087,25.051022035442397,121.50345902004572,25.046864963199237
Z5270E0,環河快往南 忠孝橋-中興橋,50.0,0.5,4.5,0,121.50345902004572,25.046864963199237,121.50167503655933,25.045448981840245
Z5280E0,環河快往南 中興橋,33.625,2.25,8.0,0,121.50167503655933,25.045448981840245,121.5001279970342,25.042896986601367
Z5290E0,環河快往南 中興橋-桂林路,64.45,1.8,20.0,0,121.5001279970342,25.042896986601367,121.49576898016257,25.039059028477933
Z52A0E0,環河快往南 桂林路-華江橋,47.81818,2.0,11.0,0,121.49576898016257,25.039059028477933,121.49109801253148,25.03619799903969
Z52B0E0,環河快往南 華江橋,78.66129,2.5,64.0,0,121.49109801253148,25.03619799903969,121.48894196862106,25.033617015140905
Z52B1E0,環河快往南 華江橋上匝道,45.375,1.5,9.0,0,121.489444030584,25.03540401521711,121.48894196862106,25.033617015140905
Z52C0E0,環河快往南 華江橋-西藏路,81.22689,4.3,123.5,0,121.48894196862106,25.033617015140905,121.4882640386846,25.02965300485391
Z52C2E0,環河快往南 西藏路下匝道,39.588234,3.4,18.0,0,121.49006401488084,25.030402013431623,121.4882640386846,25.02965300485391
Z52D0E0,環河快往南 西藏路-西園路,43.0,3.0,3.0,1,121.4882640386846,25.02965300485391,121.49051401128666,25.024400971835366
Z6110C0,環東出城　松隆匝道,67.2,0.5,25.5,0,121.5660040092375,25.04367403146413,121.56837099427794,25.047235043551247
Z6130C0,環東出城　麥帥一橋,65.62857,1.6,35.0,0,121.57060502190531,25.0510110311818,121.57492699587303,25.05342001562514
Z6140C0,環東出城　堤頂舊宗,47.109375,4.9,65.5,1,121.57492699587303,25.05342001562514,121.5774830120198,25.054945043849383
Z6150C0,環東出城　堤頂舊宗,78.916664,0.8,12.0,0,121.5774830120198,25.054945043849383,121.58486298894672,25.05861602473969
Z6150C1,環東出城  堤頂舊宗,73.25,0.8,12.0,0,121.5774830120198,25.054945043849383,121.58486298894672,25.05861602473969
Z6151C0,環東出城　舊宗匝道,45.5,3.25,7.5,1,121.56613702014008,25.051338962846955,121.58486298894672,25.05861602473969
Z6160C1,環東出城  彩虹經貿1,47.375,0.7,17.5,1,121.58486298894672,25.05861602473969,121.61654100817469,25.06258496227166
Z6160C2,環東出城  彩虹經貿2,70.76923,0.9,13.0,0,121.58486298894672,25.05861602473969,121.61654100817469,25.06258496227166
Z6160C3,環東出城  彩虹經貿3,91.625,0.6,8.0,0,121.58486298894672,25.05861602473969,121.61654100817469,25.06258496227166
Z6160C4,環東出城  彩虹經貿4,76.26667,0.0,15.0,0,121.58486298894672,25.05861602473969,121.61654100817469,25.06258496227166
Z6160C5,環東出城  彩虹經貿5,81.55556,0.9,18.0,0,121.58486298894672,25.05861602473969,121.61654100817469,25.06258496227166
Z6160C6,環東出城  彩虹經貿6,59.214287,1.0,14.0,0,121.58486298894672,25.05861602473969,121.61654100817469,25.06258496227166
Z6160C7,環東出城  彩虹經貿7,52.46154,0.625,13.0,0,121.58486298894672,25.05861602473969,121.61654100817469,25.06258496227166
Z6170C1,環東出城　南湖橋段1,69.5,1.0,12.0,0,121.61654100817469,25.06258496227166,121.6178060174443,25.06217001522283
Z6171C0,環東出城　園區匝道,51.0,0.8333333,4.0,1,121.50668698807853,25.05047100484657,121.6178060174443,25.06217001522283
Z6180A0,環東出城　往國道三號,72.72727,0.75,11.0,0,121.6178060174443,25.06217001522283,121.61927298871419,25.061198002290613
Z6310G0,環東進城　前方,66.15385,0.8333334,13.0,0,121.6195439756389,25.06145597459823,121.61682103351151,25.062867006688617
Z6320G0,環東進城　經貿園區,77.57143,0.8,14.0,0,121.61682103351151,25.062867006688617,121.61664102263607,25.06292300552032
Z6330G2,環東出城  經貿彩虹2,71.75,0.7,12.0,0,121.61664102263607,25.06292300552032,121.58460298549578,25.059068990556085
Z6330G3,環東出城  經貿彩虹3,74.92308,0.6,13.0,0,121.61664102263607,25.06292300552032,121.58460298549578,25.059068990556085
Z6330G4,環東出城  經貿彩虹4,76.083336,0.75,12.0,0,121.61664102263607,25.06292300552032,121.58460298549578,25.059068990556085
Z6330G5,環東出城  經貿彩虹5,74.5,0.75,10.0,0,121.61664102263607,25.06292300552032,121.58460298549578,25.059068990556085
Z6330G6,環東出城  經貿彩虹6,69.36364,0.6,11.0,0,121.61664102263607,25.06292300552032,121.58460298549578,25.059068990556085
Z6330G7,環東出城  經貿彩虹7,60.454544,0.75,11.0,0,121.61664102263607,25.06292300552032,121.58460298549578,25.059068990556085
Z6330G8,環東出城  經貿彩虹8,61.6875,0.9,16.0,0,121.61664102263607,25.06292300552032,121.58460298549578,25.059068990556085
Z6340G0,環東進城　舊宗新明,61.333332,0.125,10.0,0,121.58460298549578,25.059068990556085,121.57701701487431,25.055012037313976
Z6350G0,環東進城  堤頂麥一,81.14286,0.75,7.0,0,121.57701701487431,25.055012037313976,121.5748689930468,25.05386098826659
Z6360G0,環東進城　麥帥一橋,71.90476,1.1,21.0,0,121.5748689930468,25.05386098826659,121.57033795253888,25.051529995042497
Z6360G1,環東進城　麥帥一橋,63.416668,0.875,12.0,0,121.5748689930468,25.05386098826659,121.57033795253888,25.051529995042497
Z6380E0,環東進城　永吉匝道,51.260868,1.0,23.0,0,121.56821196707945,25.047908962984657,121.56693001180275,25.045808973330228
Z7010A0,正氣橋出城接麥二橋,57.47059,1.7,34.0,0,121.5723810480527,25.051765983168114,121.5723810480527,25.051765983168114
Z7230E0,麥二正氣,58.95238,1.1,21.0,0,121.5723810480527,25.051765983168114,121.53615703699234,25.044318028422193
Z8001H0,洲美往北　中正社中,61.473682,0.6666667,39.5,0,121.50132204500578,25.090527994040496,121.50671896498706,25.084097037263827
Z8001H1,洲美往北  中正社中1,67.0625,1.3333334,50.0,0,121.50132204500578,25.090527994040496,121.50671896498706,25.084097037263827
Z8010A0,洲美往北　社中通河,70.84,1.6666666,51.0,0,121.50671896498706,25.084097037263827,121.49853096426779,25.09908596603888
Z8010A2,洲美往北　跨河橋段,75.52631,0.5555556,19.5,0,121.50671896498706,25.084097037263827,121.49853096426779,25.09908596603888
Z8020A0,洲美往北　福國路段,83.51111,1.2,45.0,0,121.49853096426779,25.09908596603888,121.49917597216577,25.102618996455476
Z8030A0,洲美往北　焚化廠南,77.39024,1.2666667,41.0,0,121.49917597216577,25.102618996455476,121.49903999133217,25.106516044193928
Z8040A0,洲美往北　焚化廠北,88.1,0.6666667,20.0,0,121.49903999133217,25.106516044193928,121.49366302375905,25.121734982735695
Z8040A1,洲美往北   往大度,100.09091,0.06666667,11.0,0,121.49903999133217,25.106516044193928,121.49366302375905,25.121734982735695
Z8050A0,洲美往北　大業匝道,79.916664,0.75,12.0,0,121.49366302375905,25.121734982735695,121.49870699409735,25.125736015975946
ZLGGYA0,洲美往北　北投匝道,59.833332,0.0,6.0,0,121.49903999133217,25.106516044193928,121.51839400159723,25.050620019395865
Z8211A0,洲美往南　大度匝道,62.5625,0.375,18.0,0,121.46440900635237,25.123727033419982,121.49941501140695,25.116406970679098
Z8220E1,洲美往南  焚化廠北,58.966667,0.9166666,38.0,0,121.49941501140695,25.116406970679098,121.49941002852492,25.116230038264565
Z8230E0,洲美往南　焚化廠南,78.03846,0.8666667,26.0,0,121.49941002852492,25.116230038264565,121.49871797905706,25.10234400836714
Z8240E0,洲美往南　福國路段,76.413795,0.8666667,29.0,0,121.49871797905706,25.10234400836714,121.49812295090344,25.099323961751583
Z8250E0,洲美往南　跨河橋段,50.8,1.05,63.0,0,121.49812295090344,25.099323961751583,121.50545798703283,25.085642967977183
Z8250E2,洲美往南　通河社中,72.76471,0.6,34.0,0,121.49812295090344,25.099323961751583,121.50545798703283,25.085642967977183
Z8260A0,環北往南　社中中正,66.888885,0.5,27.5,0,121.50545798703283,25.085642967977183,121.50737502575514,25.08145002726686
Z9010A0,信快往北  木柵入口,73.14286,0.8333333,7.5,0,121.57657501594696,25.000180967324564,121.58130301841553,25.0061379810342
Z9030A0,信快往北 文山隧道,82.72727,0.25,11.0,0,121.58181904428906,25.008002968800696,121.58007302298037,25.01855204373938
Z9040A0,信快往北  文山象山間,67.0,0.0,4.5,0,121.58007302298037,25.01855204373938,121.5763180047772,25.02150798944888
Z9050A0,信快往北  象山隧道,71.57143,0.33333334,7.0,0,121.5763180047772,25.02150798944888,121.57310699600488,25.030611025966095
Z9060A0,信快往北  象山出口,47.166668,0.44444445,6.0,1,121.57310699600488,25.030611025966095,121.5730470370496,25.03233696940623
ZGYS7A0,E_I-N-EX2,43.6,1.0,5.0,0,121.5730470370496,25.03233696940623,121.56831801009703,25.029953032977375
Z9201A0,E_I-S-EN2,53.0,3.5,6.0,0,121.57458503166383,25.03295297360025,121.57295796443105,25.03289398246788
Z9211A0,信快往北  松仁匝道,41.68182,0.45,24.0,1,121.56831801009703,25.029953032977375,121.5724830049071,25.0327419748003
Z9230A0,信快往北  象山隧道,83.933334,0.4166667,15.0,0,121.57232704251739,25.030800009337664,121.57589398736971,25.02105299320836
Z9240A0,信快往北  象山文山間,58.307693,0.6666667,29.0,0,121.57589398736971,25.02105299320836,121.57973800323256,25.01814501122021
Z9250A0,信快往北  文山隧道,81.608696,0.6,23.0,0,121.57973800323256,25.01814501122021,121.5812589747502,25.008188970312133
Z9260A0,信快往北  萬芳出口,52.77778,0.6666666,31.5,1,121.5812589747502,25.008188970312133,121.58042398368573,25.004982028479695
ZJTJ960,八德路    松江路-忠孝東路,50.0,1.2,7.0,0,121.53287700420788,25.044347975687078,121.53000899843319,25.04360899446441
ZK5JW60,八德路    建國北路-新生北路,46.6,0.25,5.0,0,121.53560695419742,25.04564804212096,121.53287700420788,25.044347975687078
ZK7K820,八德路    新生南路-建國北路,34.333332,0.5,3.0,0,121.53287700420788,25.044347975687078,121.53397804674756,25.044650977013873
ZKLLH20,八德路    建國北路-復興北路,35.6875,1.2,18.0,0,121.53666002340063,25.046058991395828,121.54050798449423,25.04671302790662
ZKRM820,八德路    敦化北路-復興北路,47.8,0.6666667,5.0,0,121.54215499841837,25.047121956199465,121.54393103724864,25.047548991504847
ZKWN820,八德路    復興北路-敦化南路,60.5,1.0,4.0,0,121.54684699937977,25.04818000054738,121.54891799098887,25.04818102933539
ZKWN860,八德路    光復南路-敦化北路,48.833332,1.3333334,6.0,0,121.55261500253287,25.048185017374962,121.54891799098887,25.04818102933539
ZKWNV20,八德路    敦化南路-光復南路,56.9375,1.2,16.5,0,121.54891799098887,25.04818102933539,121.55261500253287,25.048185017374962
ZKWPX60,八德路    東興街?-光復北路,39.142857,1.3333334,7.0,0,121.55844202054078,25.04824502057679,121.55781798092819,25.048183988294408
ZKZQW20,八德路    光復南路-東興街,39.25,0.6666667,4.0,0,121.56088198711272,25.048487981367366,121.56266597055776,25.04866197626696
ZL6RM20,八德路    基隆路-東興街,51.0,1.0,2.0,0,121.56548196065579,25.04894902808738,121.56624602606519,25.04902800184306
ZL9SB20,八德路    東興街-基隆路,51.0,1.0,2.5,0,121.56624602606519,25.04902800184306,121.5693889525814,25.049394985048043
ZLDTB20,八德路    基隆路-東新街,32.615383,1.3333334,13.0,0,121.5722859641231,25.050006967055435,121.57450501328739,25.049979984079876
ZLDTB60,八德路    東新街-基隆路,35.5,0.4,8.0,0,121.5759919939117,25.05000103885043,121.57450501328739,25.049979984079876
ZLNUW60,南港路    向陽路-東新街,49.81818,1.111111,12.5,0,121.58426797829307,25.052252986307153,121.58272901012083,25.05168096799251
ZMAR840,三民路    民生東路-南京東路,36.0,1.0,3.0,0,121.56359597598474,25.056855998180367,121.56387102033227,25.05412902988982
ZMTR600,三民路    南京東路-民生東路,66.666664,1.0,6.5,0,121.56387102033227,25.05412902988982,121.56359597598474,25.056855998180367
ZNQQE40,三民路    民權東路-民生東路,33.0,1.0,3.0,0,121.56314298375126,25.061831979992483,121.56323695551347,25.060902007694033
Z4ZD520,大度路    立德路-大業路,70.0,0.5833334,15.0,0,121.49355498099342,25.121474974434243,121.49980096267876,25.12109301656181
Z58AH60,大度路    模構溪-立德路,57.617645,0.8666667,34.0,0,121.481430047917,25.122200978762624,121.47140695947435,25.12284700882599
Z5AAF60,大度路    大業路-貴子坑溪,65.15625,0.9333333,32.0,0,121.48607999189144,25.12185203778804,121.46687698891446,25.123213981114915
Z5B2R60,大度路    貴子坑溪-模構溪,61.25,1.0666667,32.0,0,121.46687698891446,25.123213981114915,121.481430047917,25.122200978762624
Z7JCE40,大業路    中央北路-承德路,55.4,0.0,10.0,0,121.49717397334595,25.136051960088928,121.49630497761056,25.13450196699427
Z3AIL00,中山北路  德行東路-士東路,55.0,0.5,7.0,0,121.52525301512145,25.10870897343588,121.52652901254798,25.112758021430977
ZHWGD40,中山南路  仁愛路-愛國西路,50.0,1.5,11.0,0,121.51774200175183,25.039273984280122,121.51646497111145,25.03488201425129
ZIVGU00,中山南路  愛國東路-信義路,43.4,0.8333333,5.0,0,121.51646497111145,25.03488201425129,121.51774200175183,25.039273984280122
ZIVGU40,中山南路  忠孝西路-仁愛路,62.0,0.5,3.0,0,121.51815502106864,25.040708011797534,121.51774200175183,25.039273984280122
ZKEHB00,中山南路  仁愛路-忠孝東路,36.22222,1.125,9.0,0,121.51925095084646,25.044495984340234,121.51958297250096,25.045632001523096
ZKEHB40,中山北路  長安西路-忠孝西路,47.285713,1.5,14.5,0,121.52031195829991,25.04715501613815,121.51958297250096,25.045632001523096
ZLBHN00,中山北路  忠孝東路-長安東路,46.642857,0.9,14.0,0,121.51925095084646,25.044495984340234,121.52162196676282,25.04981397719494
ZLBHN40,中山北路  南京西路-長安西路,67.6,0.9,15.5,0,121.5225740147303,25.05222997538264,121.52162196676282,25.04981397719494
ZLRHT00,中山北路  長安西路-南京東路,70.0,0.625,11.0,0,121.52162196676282,25.04981397719494,121.5225740147303,25.05222997538264
ZLRHT40,中山北路　南京往南,47.11111,1.0,9.5,0,121.52271397468238,25.05499198355926,121.5225740147303,25.05222997538264
ZN5HV00,民生東　中山北(往北),56.130436,1.7,23.0,0,121.52271397468238,25.05499198355926,121.52284500435273,25.057889984676255
ZNLHV00,中山北路  民權東路-錦州街,52.357143,0.875,14.0,0,121.52284500435273,25.057889984676255,121.52295499397397,25.06033602329386
ZP7HI40,中山北路  民族東路-民權東路,68.666664,0.5,3.0,0,121.52224100666838,25.064880013527684,121.5226080164147,25.06274800912432
ZQFHV00,中山北路  民權東路-民族東路,54.0,0.5,2.0,0,121.52245696398724,25.066837981781283,121.52287003575915,25.068435035575945
ZSVI940,通河街　中山北(往南),54.363636,0.77777785,11.0,0,121.52548497530766,25.084187957158754,121.52439603403226,25.079777007764783
ZTTIF00,中山北路　劍潭往北,73.0,0.0,8.0,0,121.52439603403226,25.079777007764783,121.52548497530766,25.084187957158754
ZTTIF40,中山北路  小北街-基河路,43.210526,2.0,20.0,0,121.5256500200164,25.085740013985678,121.52548497530766,25.084187957158754
ZU5IF00,中山北路  基河路-小北街,56.066666,2.1,31.5,0,121.52548497530766,25.084187957158754,121.5271849536603,25.087667018776404
ZYBIB00,中山北路  德行東路-忠誠路,51.636364,1.0,11.0,0,121.52554304373584,25.102470042621285,121.52484602370997,25.104024967900223
ZYSIB00,中山北路  忠誠路-德行東路,56.63158,1.3,19.0,0,121.52484602370997,25.104024967900223,121.52489603241499,25.106425970912923
ZZYII40,中山北路  士東路-德行東路,46.0,0.7,11.0,0,121.52652901254798,25.112758021430977,121.52525301512145,25.10870897343588
ZVEGK60,中正路    文林路-承德路,44.2,0.6666667,5.0,0,121.51770499472578,25.09180797306471,121.51649199648716,25.091000038734254
ZW7HN20,中正路    承德路-文林路,35.333332,1.8,27.0,0,121.52003199481985,25.09335301728057,121.52189001496977,25.09438498675387
ZWGIV60,中正路    雨農路-文林路,37.6,1.5,10.5,0,121.53028503165538,25.096196029221193,121.52791400466089,25.09575398777621
ZG7EQ00,中華路    和平西路-水源路,34.636364,1.75,11.0,0,121.5081640271936,25.025854978755326,121.50707702981846,25.02674398839426
ZI9EM00,中華路    和平西路-愛國西路,33.714287,0.3125,15.5,0,121.50530100403543,25.033403037990013,121.5066300000429,25.035998970919756
ZIKPW60,仁愛路光復往西,70.42857,0.0,7.0,0,121.5604260388604,25.037593024742748,121.55758202417528,25.037667010266258
ZIKQP20,仁愛路   逸仙路-光復南路,69.0,0.0,2.0,0,121.5604260388604,25.037593024742748,121.56150600161838,25.037553016135945
ZILPI20,仁愛路   光復南路-敦化南路,61.8,0.6666667,5.0,0,121.55293502396596,25.037756960228805,121.55544204640756,25.037710956404478
ZIMNN60,仁愛路安和路往西,60.8,0.375,10.0,0,121.55293502396596,25.037756960228805,121.55177500451872,25.037778967194456
ZINKW20,仁愛路    建國南路-新生南路,78.0,0.44444445,8.5,0,121.53278995384001,25.03814599666556,121.53788296664486,25.03806499347676
ZINLD60,仁愛路    復興南路-建國南路,56.375,0.6666667,8.0,0,121.54367997231617,25.03794395576117,121.53997400713456,25.038021026514365
ZINM760,仁愛路    敦化南路-復興北路,64.333336,0.0,3.0,0,121.54604804092946,25.03789103510514,121.54367997231617,25.03794395576117
ZIPIZ60,金山南路  信義路-仁愛路,58.714287,0.77777785,8.0,0,121.52941104638016,25.038212964119214,121.5283409691468,25.038251982254266
ZIPJA20,仁愛路    新生南路-金山南路,56.0,0.0,3.0,0,121.5283409691468,25.038251982254266,121.52941104638016,25.038212964119214
ZIRHZ20,仁愛路    杭州南路-中山南路,38.0,0.0,2.0,0,121.52159504053728,25.038763963847202,121.5234170101879,25.038523007308584
ZV9IP40,文林路    中正路-基河路,42.0,2.0,8.0,0,121.52595600214238,25.092338960796564,121.52703704175731,25.090212996798908
ZWBIA40,文林路    德行西路-中正路,45.53846,2.5,14.0,0,121.52403399385672,25.09730196666599,121.52461897241234,25.095006961998497
ZXJHS00,文林路    中正路-德行西路,35.8,1.6666666,10.0,0,121.52338997736805,25.099661005021066,121.52263097818675,25.100656041077343
ZY9H840,文林北路  承德路-德行西路,53.705883,1.3333334,19.0,0,121.52075297389456,25.10223397311087,121.51963700910207,25.103230969136202
ZYRGM00,文林北路  德行西路-承德路,43.95652,1.5555555,23.0,0,121.52075297389456,25.10223397311087,121.516615012448,25.10610295684633
ZZPFJ00,承德路    基河路-文林北路,43.89189,1.3125,37.0,1,121.51216899053564,25.10984704014234,121.51136898906952,25.110509026928273
Z1NMM20,木柵路    興隆路-和興路,55.0,0.5,2.0,0,121.54401698274886,24.988468986620735,121.54597101487866,24.98672897059701
Z27SN20,木新路    興隆路-木柵路,53.666668,1.0,6.0,0,121.56861503501642,24.98890995816302,121.57093096022204,24.99070698251261
Z2LSS20,木柵路    秀明路-萬芳路,56.666668,1.0,9.0,0,121.5690460071317,24.998757969898453,121.57174301518563,24.994855978192664
ZACTV20,木柵路    萬芳路-北二高,70.0,1.0,4.0,0,121.5745709828111,24.998149997995245,121.57567799671845,24.999590032066923
ZAWVC20,木柵路    北二高-新光路,59.8,1.3333334,5.0,0,121.58192199682229,25.002391978494586,121.58396499287676,25.0029429905388
Z1CRT60,木新路    木柵路-興隆路,33.444443,1.75,9.0,0,121.56875002670975,24.983953009300944,121.56673596176941,24.98325595759998
ZSBID60,北安路    明水路-中山北路,62.0,1.0,4.0,0,121.53756095239271,25.077788972083813,121.52687699752198,25.075986013231482
ZSJJX20,北安路    中山北路-明水路,66.0,1.0,2.0,0,121.52901599935093,25.07774799150084,121.53320098153638,25.078039969558425
ZSWMR40,北安路    大直街-通北街,39.0,1.0,5.0,0,121.54817997879537,25.08050403954064,121.54741397548919,25.079874995816976
ZJGPQ20,市民大道  復興北路-敦化北路,42.5,3.3333333,27.5,0,121.54621899706346,25.045076026057075,121.54888304040203,25.044805025684436
ZK6L860,市民大道  敦化北路-建國北路,38.454544,1.0,11.0,0,121.54238198363717,25.04463001349238,121.53948699258495,25.044486986710744
ZK6NY60,市民大道  敦化北路-復興北路,32.714287,1.875,14.0,0,121.55675297286862,25.044929037857028,121.55304402732442,25.044518030567676
ZK6P820,市民大道  敦化北路-光復北路,51.71698,5.4,57.5,0,121.54888304040203,25.044805025684436,121.55378598758699,25.044118032277787
ZK8LT20,市民大道  建國北路-復興北路,49.0,1.5,23.5,0,121.53948699258495,25.044486986710744,121.54238198363717,25.04463001349238
ZK9KC60,市民大道  建國北路-金山北路,51.2,1.3,20.0,0,121.53665495260495,25.044894027352036,121.53478201031973,25.045027986606083
ZKJJP20,市民大道  金山北路-建國北路,62.074074,1.4,27.5,0,121.61542199867544,25.045238998741045,121.53289098360119,25.045449982769682
ZKNIV20,市民大道  中山北路-金山北路,42.833332,3.5,7.0,0,121.52605200502518,25.04751398035903,121.52775497685798,25.047066015748065
ZKQQY20,市民大道  光復南路-基隆路,39.555557,0.25,9.0,0,121.55778403126995,25.045105009153968,121.56297701714159,25.047307042748464
ZKSIE60,市民大道  金山北路-中山北路,39.12,1.5,25.0,0,121.52775497685798,25.047066015748065,121.52605200502518,25.04751398035903
ZKVHI20,市民大道  重慶北路-中山北路,38.0,0.5,4.0,0,121.51677598897454,25.049911987193163,121.52076195764786,25.048039004115743
ZL5GL60,市民大道  中山北路-重慶北路,31.62963,41.9,27.5,0,121.51485003330765,25.049051978594925,121.51642396179241,25.04877603375429
ZLAFP60,市民大道  重慶北路-環河北路,45.666668,1.5,18.0,0,121.51331496725346,25.04942798433308,121.51198901642708,25.049902020993937
ZLXFX20,市民大道  環河北路-重慶北路,46.4375,2.25,16.5,0,121.51198901642708,25.049902020993937,121.51331496725346,25.04942798433308
ZMSEX60,民生西路  重慶北路-環河北路,41.42105,1.5,19.0,0,121.50900497438117,25.056873022049373,121.50827197583031,25.056857024874617
ZMTG520,民生西路  環河北路-重慶北路,41.7,2.5,20.0,0,121.51160202927876,25.05692702417869,121.51379299480863,25.056973990189686
ZMTG560,民生西路  承德路-重慶北路,45.15,6.0,28.5,0,121.515556954,25.057013017592052,121.51379299480863,25.056973990189686
ZMTHB20,民生西路  承德路-雙連站,47.0,3.1,37.5,0,121.5191859986655,25.057450966427762,121.51972200022101,25.057522038474225
ZMTHB60,民生西路  中山北路-雙連站,56.857143,0.33333334,7.0,0,121.52284500435273,25.057889984676255,121.51972200022101,25.057522038474225
ZMUGG20,民生西路  重慶北路-承德路,47.333332,4.0,13.5,0,121.51379299480863,25.056973990189686,121.515556954,25.057013017592052
ZMXH820,民生西路  雙連站-承德路,33.642857,2.8,14.0,0,121.51817497086049,25.057337042204487,121.5191859986655,25.057450966427762
ZMYN820,民生東路  復興北路-敦化北路,57.125,1.0,8.5,0,121.54621504649032,25.057714956867297,121.54901002468907,25.057695983841906
ZMZL960,民生東路  建國北路-龍江路,46.23077,1.1111112,13.0,0,121.54069500275752,25.057808013132966,121.53916899194306,25.057813019497804
ZMZM960,民生東路  敦化北路-復興北路,61.333332,0.44444445,6.5,0,121.54621504649032,25.057714956867297,121.5441439542754,25.05775000507868
ZN5HV20,民生西　中山北(往東),40.846153,3.75,26.0,0,121.51972200022101,25.057522038474225,121.52284500435273,25.057889984676255
ZN5HV60,民生西路  雙連站-中山北路,37.882355,2.25,17.5,0,121.52552199386182,25.05804304114696,121.52284500435273,25.057889984676255
ZN5IG20,民生東路  新生北路-林森北路,45.173912,3.0,23.0,0,121.52284500435273,25.057889984676255,121.52552199386182,25.05804304114696
ZN5IG60,民生東路  中山北路-林森北路,40.347828,1.0,24.0,0,121.52759397476576,25.058027027750914,121.52552199386182,25.05804304114696
ZN5IU20,民生東路  林森北路-新生北路,45.96552,1.8,29.0,0,121.52552199386182,25.05804304114696,121.52759397476576,25.058027027750914
ZN5JX20,民生東路  新生北路-松江路,49.304348,1.4,24.5,0,121.53154799480313,25.057939981351744,121.53313299757023,25.05791597287314
ZN5JX60,民生東路  建國北路-松江路,21.12,59.266663,27.0,1,121.53691903993311,25.05785800541296,121.53313299757023,25.05791597287314
ZN8PG20,民生東路  敦化北路-光復北路,42.8,2.3333333,12.5,0,121.55212398162533,25.057972975817947,121.5552369650006,25.058250989299182
ZN8PT60,民生東路  松江路-新生北路,45.0,0.75,9.0,0,121.53313299757023,25.05791597287314,121.53019996520895,25.057963036802143
ZN9PZ60,民生東路  三民路-光復北路,61.0,0.0,3.0,0,121.56052098017575,25.058628011921222,121.55828100949965,25.058492000993343
ZNCRE20,民生東路  光復北路-三民路,67.0,0.0,1.0,0,121.56052098017575,25.058628011921222,121.56340701998442,25.058861028195906
ZNCRE60,民生東路  新東街-三民路,35.5,1.0,2.0,0,121.56593497026537,25.05905003260191,121.56340701998442,25.058861028195906
ZNDRK60,民生東路  撫遠街-新東街,48.0,1.0,1.0,0,121.5689879525167,25.059200961326518,121.56593497026537,25.05905003260191
ZNES600,民生東路  新東街-撫遠街,48.0,1.0,6.0,0,121.56933603662438,25.057313041042693,121.56842301712018,25.059203034505646
ZQDLJ20,民族東路  松江路-復興北路,47.142857,0.0,7.0,0,121.53628001283629,25.06816095925384,121.5410080155386,25.068080970560754
ZQEIH20,民族東路  中山北路-新生北路,47.933334,1.25,15.0,0,121.52287003575915,25.068435035575945,121.52575400484086,25.06835199426598
ZQEIV20,民族東路  松江路-新生北路,59.6,0.0,5.0,0,121.52575400484086,25.06835199426598,121.52784596673138,25.06830900080771
ZQEJF20,民族東路  新生北路-松江路,49.1,0.5,10.0,0,121.52784596673138,25.06830900080771,121.53046196583027,25.06826302307746
ZQEJY20,民族東路  復興北路-松江路,62.6,0.0,5.0,0,121.53046196583027,25.06826302307746,121.5333069910677,25.068207961234386
ZQFHC20,民族西路  中山北路-承德路,59.0,0.5,3.0,0,121.51841003728042,25.068495003801065,121.51957001212351,25.068509004975667
ZQFHV20,民族西路  承德路-中山北路,48.0,0.9333333,23.5,0,121.51957001212351,25.068509004975667,121.52287003575915,25.068435035575945
ZQFHV60,民族東路  新生北路-中山北路,51.0,1.0,1.0,0,121.52575400484086,25.06835199426598,121.52287003575915,25.068435035575945
ZQGFY60,民族西路  承德路-環河北路,60.0,2.0,6.0,0,121.51592295446419,25.068558016334357,121.5137320012305,25.06861102504049
ZQGGJ20,民族西路  環河北路-承德路,53.266666,2.6,16.5,0,121.5137320012305,25.06861102504049,121.51592295446419,25.068558016334357
ZNUNJ20,民權東路  復興北路-敦化北路,35.266666,0.9166667,15.0,0,121.54794904297492,25.0618890047209,121.55077102013237,25.061480969774898
ZNUNJ60,民權東路 光復北路-敦化北路,51.75,0.5833334,8.0,0,121.55457904572339,25.061881996146653,121.55077102013237,25.061480969774898
ZNXPC20,民權東路  敦化北路-光復北路,45.333332,0.5833334,26.0,0,121.55077102013237,25.061480969774898,121.55457904572339,25.061881996146653
ZNXPC60,民權東路  撫遠街-光復北路,63.625,0.46666664,9.0,0,121.55916004809383,25.0622719808216,121.55457904572339,25.061881996146653
ZNZM920,民權東路  建國北路-復興北路,44.5,0.5,4.0,0,121.54083295636913,25.062186024839196,121.54423299286196,25.062200957326045
ZNZM960,民權東路  光復北路-敦化北路,48.6,0.5,5.0,0,121.5466500182697,25.061929994991235,121.54423299286196,25.062200957326045
ZP5KR20,民權東路  松江路-建國北路,51.333332,0.875,10.0,0,121.53320303737716,25.062466042796036,121.5370179999379,25.062371042456935
ZP5KR60,民權東路  松江路-建國北路,51.42857,0.8,7.5,0,121.54083295636913,25.062186024839196,121.5370179999379,25.062371042456935
ZP5QG20,民權東路  光復北路-撫遠街,45.0,0.8666667,17.0,0,121.55916004809383,25.0622719808216,121.56017196238606,25.062411983377313
ZP6IG60,民權東路  中山北路-新生北路,42.0,0.6,11.0,0,121.52775201364459,25.06262102760483,121.52563095134761,25.062673962140497
ZP6IV60,民權東路  松江路-新生北路,45.307693,0.875,14.0,0,121.53029899333005,25.06254902790072,121.52775201364459,25.06262102760483
ZP6JY20,民權東路  新生北路-松江路,49.0,0.75,20.5,0,121.53029899333005,25.06254902790072,121.53320303737716,25.062466042796036
ZP6JY60,民權東路  建國北路-松江路,60.1,1.8,11.0,0,121.5370179999379,25.062371042456935,121.53320303737716,25.062466042796036
ZP8GI20,民權西路        　大龍街(往東),44.142857,3.0,43.0,0,121.51616398428455,25.059845002442923,121.51595803864231,25.062925012854603
ZQEUU60,民權東路  瑞光路-撫遠街,55.45,1.625,21.5,0,121.58431704604232,25.06876501638754,121.58250000310453,25.068248984276217
ZQKVX60,民權東往西　成功路-瑞光路,70.0,0.6666667,9.0,0,121.59089903353684,25.068946969990574,121.58783698659985,25.069049044636547
ZQKWL20,民權東往東  瑞光路-成功路,58.272728,0.875,11.0,0,121.58783698659985,25.069049044636547,121.59089903353684,25.068946969990574
ZQKWL60,民權東路  民權隧道-成功路,30.0,0.5,1.0,1,121.57883503417169,25.056120013521625,121.59089903353684,25.068946969990574
ZQUWI20,民權東路  成功路-民權隧道,54.75,1.0,8.5,0,121.59089903353684,25.068946969990574,121.59523904254493,25.068559033872205
ZKDTY20,永吉路    基隆路-松山路,55.894737,2.2,19.5,0,121.57700098094551,25.045446996359928,121.57779395366988,25.045417010901044
Z3UNW00,仰德大道三段    陽明山國小(往北),104.0,1.0,1.5,0,121.54888995549202,25.110699983238593,121.5516669972286,25.11755102839183
Z7HMH00,仰德大道四段　格致中學(往北),52.8,2.0,5.5,0,121.55283297122376,25.11892796422012,121.54584899117218,25.13380502731135
ZXSLB20,仰德大道二段　2巷(嶺頭山莊)(往東),48.5,1.0,4.0,0,121.53715895652813,25.106075018363406,121.5397580421942,25.101858985824947
ZHEPV00,光復南路 基隆路-信義路,44.666668,1.25,4.5,0,121.55739597463773,25.029388971894342,121.55744802639418,25.03211498271663
ZHEPV40,舊宗路一段南京六行善(往北),43.11111,0.375,21.0,0,121.55747202969788,25.03306302026789,121.55744802639418,25.03211498271663
ZHKPV40,光復南路 仁愛路-信義路,43.8,1.5,25.5,0,121.55752195365501,25.0353829553836,121.55747202969788,25.03306302026789
ZIKPW00,仁愛路　光復南(往北),39.484848,2.0,41.0,0,121.55752195365501,25.0353829553836,121.55758202417528,25.037667010266258
ZJFPW00,光復南路 仁愛路-忠孝東路,44.590908,0.4,22.0,0,121.55761902394893,25.03931900634124,121.55765797253851,25.0413139705787
ZJFPW40,光復南路   市民大道-忠孝東路,45.5,1.875,18.5,0,121.55781798092819,25.048183988294408,121.55765797253851,25.0413139705787
ZKAPX00,光復南路  忠孝東路-市民大道,56.0,0.5,1.0,0,121.55765797253851,25.0413139705787,121.55778403126995,25.045105009153968
ZKWPX40,光復北路  南京東路-八德路,42.0,0.25,8.0,0,121.5573080174616,25.051543974442843,121.55781798092819,25.048183988294408
ZL7PX00,光復北路  八德路-南京東路,49.42857,0.2,14.0,0,121.55781798092819,25.048183988294408,121.55784201017188,25.049113967483663
ZLNPU40,光復北路  健康路-南京東路,36.5,0.875,8.0,0,121.55659404607604,25.05365000514917,121.5573080174616,25.051543974442843
ZM7PP00,光復北路  南京東路-健康路,35.25,2.6666667,4.5,0,121.5573080174616,25.051543974442843,121.55659404607604,25.05365000514917
ZN8PG40,光復北路  民權東路-民生東路,57.0,1.0,6.0,0,121.55457904572339,25.061881996146653,121.5552369650006,25.058250989299182
ZNXPC00,光復北路  民生東路-民權東路,52.5,1.5,4.5,0,121.5552369650006,25.058250989299182,121.55457904572339,25.061881996146653
ZLAJE40,吉林路    南京東路-長安東路,54.5,1.4,10.0,0,121.5300490178906,25.050497002823775,121.53003496064127,25.049694005950904
ZLRJE00,吉林路    長安東路-南京東路,48.0,1.0,2.0,0,121.5296029732896,25.04815201688903,121.53008499361752,25.05204103568621
ZLRJE40,吉林路  民生東路-南京東路,42.125,1.2,8.0,0,121.53011202428344,25.053648025770165,121.53008499361752,25.05204103568621
ZMEJE00,吉林路    南京東路-民生東路,46.454544,1.25,11.0,0,121.53011202428344,25.053648025770165,121.53013697345968,25.054840002719146
ZP6JF40,吉林路    民族東路-民生東路,38.0,3.25,13.0,0,121.53036798160737,25.064805975980295,121.53029899333005,25.06254902790072
ZPLJF00,吉林路    民生東路-民族東路,32.333332,2.5,9.0,0,121.53029899333005,25.06254902790072,121.53036798160737,25.064805975980295
ZMDXF00,向陽路    忠孝西路-南港路,53.0,0.75,4.0,0,121.59516295222346,25.052787974190633,121.59485197586727,25.054107037621062
ZMLXB00,向陽路    重陽路-新明路,82.25,0.2,8.0,0,121.59490500322177,25.054847031137555,121.5941350489162,25.055571992245557
ZFNNH40,安和路    樂利路-和平東路,59.5,1.6,12.5,0,121.54982899159062,25.028027012998596,121.55031896496322,25.024467955035906
ZGNNK40,安和路    信義路-樂利街,52.0,0.0,3.0,0,121.55161104625654,25.029745043905947,121.55079495910586,25.029015983592743
ZHLNV00,安和路    樂利街-信義路,42.5,0.6666667,4.0,0,121.55243204223311,25.03170099650388,121.55246796077616,25.03317198732436
ZHLNV40,安和路    仁愛路-信義路,0.0,0.0,2.0,2,121.55252796583791,25.035330014607982,121.55246796077616,25.03317198732436
ZIMNN00,安和路    信義路-仁愛路,9.2,0.33333334,5.0,2,121.55250199563278,25.036168999241667,121.55177500451872,25.037778967194456
ZJGMT00,安和路    仁愛路-敦化南路,21.0,0.0,2.0,1,121.54614404355456,25.04155598819413,121.5471840322403,25.041543043472053
ZQ6WK40,成功路    民權東路-南京東路,50.636364,0.8333333,11.5,0,121.59070395138711,25.067539018743997,121.59085003298556,25.062843971057475
ZJPEI60,成都路    中華路-康定路,37.73077,2.6,27.0,0,121.50758797146234,25.042359975047972,121.50593404463469,25.04273603927064
ZJUDT20,成都　　康定路(往東),32.2,1.6,15.5,0,121.49148896556173,25.04863501356392,121.50262699990402,25.043524041913717
ZWRLS20,至善路    福林路-故宮路,58.466667,0.8666667,19.0,0,121.53992701750923,25.097371001797303,121.54230598172133,25.097190972255643
ZWXMM60,至善路    至善路-故宮路,54.0,1.0,3.0,0,121.55025099090119,25.10029496968456,121.54652402621758,25.09814202947634
ZX9KL60,福林路    雨農路-至善路,58.2,0.44444445,5.0,0,121.53992701750923,25.097371001797303,121.53646502128419,25.099216970262155
ZFWBS00,光復橋(往北),52.058823,0.9,17.0,0,121.4908679831299,25.02446002111018,121.4924980255837,25.02584496270482
ZGKCG40,西園路    和平西路-西藏路,38.3,1.1666666,10.0,0,121.49632003092019,25.03011104248461,121.49563098218528,25.028686987774297
ZHZD800,西園路    西藏路-和平西路,38.166668,0.6666667,6.0,0,121.49678999236367,25.03104000137365,121.49931396602535,25.035255981782544
ZJPEI40,西寧南路  峨嵋街-內江街,41.846153,0.9,13.0,0,121.5061960153764,25.043665041537132,121.50593404463469,25.04273603927064
ZKJEP40,西寧北路  忠孝西路-峨嵋街,49.8,1.6,21.0,0,121.50732198086591,25.04756097851685,121.50702999071076,25.046541980968744
ZGKCG60,西藏路    萬大路-西園路,51.545456,0.8,11.5,0,121.49918103550004,25.029343008457285,121.49563098218528,25.028686987774297
ZGQDF20,西藏路    西園路-萬大路,56.77778,0.875,9.5,0,121.49918103550004,25.029343008457285,121.50053797666632,25.029392974905242
ZGQDF60,西藏路    中華路-萬大路,37.6,1.6,20.0,0,121.50230300216293,25.02969397670583,121.50053797666632,25.029392974905242
ZGUEI20,西藏路    萬大路-中華路,42.8,0.8,10.0,0,121.50230300216293,25.02969397670583,121.50411797747365,25.02999496858129
ZGUEI60,西藏路    汀洲路-中華路,30.0,0.6666667,4.0,0,121.50721196289393,25.030643043537328,121.50411797747365,25.02999496858129
ZGYER20,西藏路    中華路-汀州路,31.0,0.8,9.0,0,121.50411797747365,25.02999496858129,121.50721196289393,25.030643043537328
Z1SNV00,辛亥路    懷恩隧道-光輝路,53.166668,1.25,6.0,0,121.55419398195522,24.984829031309577,121.55234503923347,24.987798033510614
ZAGPE40,辛亥路    懷恩隧道-興隆路,54.5,1.0,2.0,0,121.55681797095943,25.004519031338504,121.55459204512684,25.000826004759794
ZB5PL00,辛亥路    興隆路-萬美街,53.916668,2.25,12.0,0,121.55681797095943,25.004519031338504,121.55815299068459,25.006067041236086
ZB5PL40,辛亥路    萬美街-興隆路,47.125,1.75,8.0,0,121.55854195278724,25.00666098409381,121.55815299068459,25.006067041236086
ZB5PL60,辛亥路    辛亥隧道-萬美街,46.77778,1.4,9.0,0,121.55854195278724,25.00666098409381,121.55815299068459,25.006067041236086
ZBQP700,辛亥路    萬美街-辛亥隧道,53.0,2.0,8.0,0,121.55815299068459,25.006067041236086,121.55854195278724,25.00666098409381
ZDYN960,辛亥路    基隆路-辛亥隧道,57.0,0.0,15.0,0,121.55087596188297,25.018326973487,121.54905701691251,25.01700702342818
ZEFMN20,辛亥路    基隆路-復興南路,43.857143,1.0,8.0,0,121.54335897854092,25.021243986424103,121.54664904866901,25.01914598458858
ZEFMN60,辛亥路    辛亥隧道-基隆路,31.4,0.6666667,7.5,0,121.54905701691251,25.01700702342818,121.54664904866901,25.01914598458858
ZEWM520,辛亥路    復興南路-建國南路,68.4375,1.5833333,24.0,0,121.54107998625364,25.021315043574642,121.54335897854092,25.021243986424103
ZEWM560,辛亥路    復興南路-基隆路,49.8,0.0,5.0,0,121.54664904866901,25.01914598458858,121.54335897854092,25.021243986424103
ZF9KB60,辛亥路    建國南路-汀州路,39.0,0.33333334,2.5,0,121.53757699004582,25.022267034958556,121.53442604525193,25.022386010516612
ZF9KW60,辛亥路    復興南路-建國南路,61.1875,0.9333333,17.5,0,121.54335897854092,25.021243986424103,121.53757699004582,25.022267034958556
ZEUPN60,和平東路  臥龍街-基隆路,34.875,0.75,8.0,0,121.55756000595673,25.01963803402176,121.55651399349088,25.020580963984667
ZEZPT20,和平東路  基隆路-臥龍街,27.833334,0.5,6.0,0,121.55464904922985,25.022384973181723,121.55554699335228,25.021515014770397
ZFPMQ20,和平東路  復興南路-基隆路,40.133335,1.4,17.5,0,121.54342402312793,25.024854985530066,121.54668303172222,25.024670960640382
ZFQM660,和平東路  基隆路-復興南路,60.95,1.4,20.5,0,121.54668303172222,25.024670960640382,121.54342402312793,25.024854985530066
ZFTLH60,和平東路  復興南路-新生南路,45.727272,0.0,11.0,0,121.53767102477072,25.025633994351345,121.53883896114137,25.025476016858786
ZG8IK60,和平西路  重慶南路-羅斯福路,46.666668,0.8333333,9.0,0,121.52851903967856,25.026569987094426,121.5259139624619,25.02678597037912
ZG9HT60,和平東路  師大路-羅斯福路,50.0,0.33333334,2.0,0,121.52391297814842,25.02694696572333,121.52242702673107,25.02703299726304
ZGBGJ60,和平西路  羅斯福路-重慶南路,38.576923,2.7,26.5,0,121.51798699202239,25.026723975406263,121.5159579781616,25.027245995689892
ZGMFQ20,和平西路  南海路-重慶南路,49.5,0.6666667,6.0,0,121.5091640480968,25.03054599755902,121.51203102466378,25.029038023225727
ZGXF860,和平西路  重慶南路-南海路,47.0,0.75,3.0,0,121.51203102466378,25.029038023225727,121.5091640480968,25.03054599755902
ZH7EV20,莒光路    中華路-和平西路,48.0,0.0,1.0,0,121.50530100403543,25.033403037990013,121.50788904333811,25.03121898219608
ZHZC820,和平西路  中華路-水源路,52.565216,0.5,23.0,0,121.49152496351319,25.035463955166513,121.49440899390339,25.03540798360091
ZHZDJ20,和平西路  環河南路-中華路,45.923077,0.3,13.0,0,121.49931396602535,25.035255981782544,121.50122598776412,25.035205036607337
ZISCI20,華江橋(往東),72.0,1.0,9.0,0,121.4908679831299,25.02446002111018,121.49604804865312,25.038814969935114
ZJCTT20,忠孝東路  松信路-松山路,40.733334,1.375,15.5,0,121.57532503874519,25.040832044322563,121.57692997466673,25.040798014863462
ZJCTT60,忠孝東路  松山路-松信路,43.285713,0.9333333,21.5,0,121.57783196760066,25.04077699540827,121.57692997466673,25.040798014863462
ZJDST20,忠孝東路 松仁路-松信路,49.761906,0.6666666,21.0,0,121.57019196588068,25.040986981132097,121.57193595692189,25.04093495747969
ZJERC20,忠孝東　基隆路(往東),53.36,1.5,25.0,0,121.56273095734802,25.041186958742127,121.56446498833695,25.04114399820202
ZJERC60,忠孝東路往西 松仁路-基隆路,46.146343,1.4666666,46.0,0,121.56868600302879,25.041037983209243,121.56446498833695,25.04114399820202
ZJES820,忠孝東路往東 基隆路-松仁路,53.066666,0.06666667,16.0,0,121.56446498833695,25.04114399820202,121.56868600302879,25.041037983209243
ZJFQQ60,忠孝東路  基隆路-逸仙路,59.916668,0.8333333,24.0,0,121.56273095734802,25.041186958742127,121.56158204897511,25.041218028653063
ZJGNK60,忠孝四段170往西,58.19512,0.55,41.5,0,121.55297103799988,25.04141301113327,121.55077097870608,25.041465961959275
ZJGPC20,忠孝東路　延吉往東,51.058823,0.8333333,17.5,0,121.55297103799988,25.04141301113327,121.55448704596185,25.04138903433823
ZJHKR20,忠孝東路  復興北路-建國南路,65.26316,0.8,19.0,0,121.5328679510871,25.042298995618633,121.53707701611087,25.04170604350189
ZJHM720,忠孝東路  建國南路-復興北路,57.833332,1.3333333,24.5,0,121.54163497902806,25.041634968210364,121.5437659952972,25.041609038088943
ZJHML20,忠孝東路  復興南路-大安路,50.22222,0.9999999,18.0,0,121.5437659952972,25.041609038088943,121.54614404355456,25.04155598819413
ZJHML60,忠孝東路  敦化南路-大安路,53.764706,1.1333333,34.0,0,121.5471840322403,25.041543043472053,121.54614404355456,25.04155598819413
ZJLJW20,忠孝東路  新生北路-建國南路,46.77778,0.4666667,9.0,0,121.52986796596375,25.0431219811591,121.5328679510871,25.042298995618633
ZJQJI20,忠孝東路  建國南路-中山北路,53.190475,0.9333333,21.5,0,121.52986796596375,25.0431219811591,121.53073000903078,25.042883993655582
ZJTJ820,忠孝東路  杭州北路-中山北路,50.894737,0.9333333,19.0,0,121.5268490116363,25.04394497381037,121.52900697122658,25.043351022162348
ZK8HY20,忠孝東路  館前路-林森北路,45.57143,1.0,14.5,0,121.52163204237861,25.04519201456877,121.5233449969272,25.044788032304044
ZKAHN20,忠孝東路  林森北路-館前路,44.16,1.0666667,25.0,0,121.51958297250096,25.045632001523096,121.52163204237861,25.04519201456877
ZKCUX20,忠孝東路  東新街-中坡南路,54.5,0.75,8.0,0,121.58193103857073,25.044172961275603,121.58271897458198,25.045281042430236
ZKLGD20,忠孝西路  中華路-館前路,45.608696,1.3333334,24.0,0,121.5110099766672,25.047973019555446,121.51500898492537,25.04679503734733
ZKVVH20,忠孝東路  中坡南路-東新街,40.076923,0.9,13.0,0,121.58271897458198,25.045281042430236,121.5851000327287,25.047962034547325
ZKXET20,忠孝西路  環河北路-塔城街,40.0,1.75,11.0,0,121.50650398665563,25.04889099017893,121.50762304776401,25.04861695946501
ZKXET60,忠孝西路  中華路-環河北路,49.3,0.8,10.0,0,121.50675899905592,25.05060600003209,121.50762304776401,25.04861695946501
ZLEWS20,忠孝東路  東新街-向陽路,47.666668,1.25,9.5,0,121.5890509989689,25.049246003211337,121.5913220491754,25.04973397221257
ZLEWS60,忠孝東路  向陽路-東新街,56.857143,0.9,14.5,0,121.57532503874519,25.040832044322563,121.5913220491754,25.04973397221257
ZM64J20,忠孝東路  向陽路-研究院路,60.0,1.0,11.0,0,121.61261503991973,25.05273498415846,121.61524300853833,25.05304001096575
ZM64J60,忠孝東路  研究院路-向陽路,70.0,0.5,5.5,0,121.61629396120954,25.053161955416,121.61524300853833,25.05304001096575
Z37JI40,忠誠路    天母東路-德行東路,62.2,0.16666667,10.0,0,121.5329340163382,25.11490203736794,121.53106897733758,25.112407974954706
Z4FKA00,忠誠路    德行東路-天母東路,55.22222,0.0,9.0,0,121.5329340163382,25.11490203736794,121.53466299807964,25.11808296305728
ZYBIB60,忠誠路    忠義街-中山北路,21.416666,58.36667,26.125,1,121.52889801255856,25.10550904200393,121.52484602370997,25.104024967900223
ZYLJ600,忠誠路  中山北路-忠義街,21.24,35.533333,29.0,1,121.52484602370997,25.104024967900223,121.52889801255856,25.10550904200393
ZZAJE00,忠誠路  忠義街-德行東路,58.555557,0.4666667,9.0,0,121.52889801255856,25.10550904200393,121.53031801916522,25.1083749664506
ZZAJE60,忠誠路    中山北路-忠義街,34.0,2.0,2.0,0,121.53590703827052,25.110024962792544,121.53031801916522,25.1083749664506
Z3MER00,承德路    文林北路-吉利街,49.346153,1.0,27.0,0,121.50923497412023,25.1124480055163,121.50713096586466,25.114369968690873
Z4VDD40,承德路    文林北路-基河路,65.21739,0.55,23.5,0,121.51136898906952,25.110509026928273,121.51187397986403,25.10557798607502
ZLIGO40,承德路    南京西路-市民大道,44.444443,0.9166667,9.0,0,121.517691970298,25.05324900752646,121.51702800056215,25.050877024963963
ZLYGU00,承德路    市民大道-南京西路,47.3,0.8333333,10.5,0,121.51702800056215,25.050877024963963,121.517691970298,25.05324900752646
ZMQGX40,承德路    民生西路-南京西路,70.0,0.33333334,1.0,0,121.51817497086049,25.057337042204487,121.51814402200118,25.054737967037315
ZMWGW40,承德路民生西路往南,53.07143,1.0666667,31.0,0,121.51821703820193,25.060198975084056,121.51817497086049,25.057337042204487
ZP8GX00,承德路    民生西路-民權西路,42.608696,1.2666667,24.0,0,121.51821703820193,25.060198975084056,121.51827803400042,25.06287098050223
ZP8GX40,承德路    民族西路-民權西路,70.0,0.33333334,1.0,0,121.51832997938554,25.065841032910107,121.51827803400042,25.06287098050223
ZQFGY00,承德路    民權西路-民族西路,68.933334,0.59999996,15.5,0,121.51832997938554,25.065841032910107,121.51841003728042,25.068495003801065
ZR8GZ40,承德路    劍潭路-民族西路,51.77778,0.5833334,9.0,0,121.5191329923447,25.073025013921608,121.51860298357971,25.071897998368357
ZRTHD00,承德路    民族東路-劍潭路,51.8125,1.5,16.5,0,121.5191329923447,25.073025013921608,121.5201429544384,25.07517900251802
ZV7GX00,承德路    中正路-劍潭路,38.285713,0.75,22.5,0,121.52155896315946,25.088815043841223,121.51835098957332,25.089783979548052
ZVCGQ40,承德路    大業路-吉利街,69.71429,0.79999995,22.5,0,121.50149997369957,25.119498979983113,121.50333699309475,25.117813001837124
ZVEGK00,承德路    劍潭路-中正路,45.846153,0.6,13.0,0,121.51835098957332,25.089783979548052,121.51649199648716,25.091000038734254
ZVVGB40,承德路    基河路-中正路,68.14286,0.5833333,14.0,0,121.5140550171656,25.095974011667895,121.5156350033855,25.092103988547027
ZJQEB00,昆明街    成都路-忠孝西路,39.789474,1.5,19.0,0,121.50453204520602,25.04149501851297,121.50482500881056,25.04300198779031
ZSEMV60,明水路    樂群一路-大直橋,73.36364,0.1,11.0,0,121.54957302259686,25.077275975144403,121.54768998553784,25.07740896666108
ZT9NN00,明水路    北安路-樂群一路,56.333332,0.5,6.0,0,121.55204403340869,25.079983967454414,121.55144801938886,25.081854982225746
ZHFHV00,杭州南路  羅斯福路-愛國東路,40.0,0.5,1.0,0,121.52200202578554,25.02953599801591,121.52227498314126,25.03086198979259
ZI6I900,杭州南路  愛國東路-信義路,46.0,0.0,4.0,0,121.52675898021955,25.03425896645728,121.52432600596141,25.035441042184985
ZIPIF00,杭州南路  信義路-仁愛路,61.333332,0.875,10.5,0,121.52432600596141,25.035441042184985,121.52520002706771,25.03828198562989
ZJGIK00,杭州南路  仁愛路-忠孝東路,0.0,0.16666667,7.0,2,121.52574300954727,25.040148970297313,121.52615501421006,25.0415549907144
ZIGHK40,信義路　林森南(往南),40.407406,0.7,27.0,0,121.52159504053728,25.038763963847202,121.52108199179364,25.037022980346425
ZJCHS40,林森南路  忠孝東路-仁愛路,47.444443,0.79999995,18.0,0,121.5226509629361,25.04239803243175,121.52223903326511,25.041001029809813
ZJMHU00,林森南路  仁愛路-忠孝東路,50.0,0.75,6.5,0,121.52223903326511,25.041001029809813,121.5226509629361,25.04239803243175
ZK8HY40,林森北路  長安東路-忠孝東路,41.166668,0.25,6.0,0,121.52380698693547,25.046321990912862,121.5233449969272,25.044788032304044
ZLRIF40,林森北路  長春路-長安東路,34.5,0.6666667,8.5,0,121.5254589787148,25.05490998252068,121.52537799372577,25.052093961772073
ZMFIG00,林森北路  長安東路-長春路,33.5,2.0,32.0,0,121.52537799372577,25.052093961772073,121.5254589787148,25.05490998252068
ZN5IG00,林森北路  長春路-民生東路,32.58621,7.2,31.0,0,121.5254589787148,25.05490998252068,121.52552199386182,25.05804304114696
ZNKIG00,林森北路  民生東路-民權東路,32.324326,13.8,55.5,0,121.52552199386182,25.05804304114696,121.52557102940963,25.060291036509643
ZNKIG40,林森北路  民權東路-民生東路,37.236843,6.6,38.5,0,121.5256069906606,25.061680960145253,121.52557102940963,25.060291036509643
ZPYIH00,林森北路  民權東路-民族東路,31.607143,7.6,30.0,0,121.52569004806715,25.064885988734282,121.52570796708886,25.066646035380373
ZPYIH40,林森北路  民族東路-民權東路,40.444443,0.6,9.5,0,121.52575400484086,25.06835199426598,121.52570796708886,25.066646035380373
ZMEJW40,松江路    民生東路-南京東路,58.6,0.5,5.5,0,121.53313299757023,25.05791597287314,121.53307003105817,25.054793031162422
ZN5JX00,松江路    南京東路-民生東路,38.77778,4.0,41.5,0,121.53307003105817,25.054793031162422,121.53313299757023,25.05791597287314
ZN5JX40,松江路  民權東路-民生東路,54.363636,0.46666664,11.0,0,121.53317304714058,25.060299958783716,121.53313299757023,25.05791597287314
ZNLJX20,松江路    民生東路-民權東路,61.36842,0.91666675,19.0,0,121.53484795576895,25.060294026026742,121.53317304714058,25.060299958783716
ZP6JY40,松江路    民生東路-民權東路,39.555557,1.2666667,28.5,0,121.53324196831826,25.064705040711697,121.53320303737716,25.062466042796036
ZQEJY00,松江路    民權東路-民族東路,35.909092,1.3333334,13.0,0,121.5370179999379,25.062371042456935,121.5333069910677,25.068207961234386
ZDYJC00,金山南路  愛國東路-信義路,52.583332,0.6,12.0,0,121.52684700387282,25.03166695892315,121.52727297260085,25.034048955862758
ZDYJC40,金山南路  仁愛路-信義路,44.705883,1.1,17.0,0,121.5283409691468,25.038251982254266,121.52727297260085,25.034048955862758
ZG8IK40,金山南路  愛國東路-和平東路,39.5625,1.75,16.0,0,121.52630899562595,25.02886997363314,121.5259139624619,25.02678597037912
ZHAIQ00,金山南路  和平東路-愛國東路,43.72222,1.625,18.0,0,121.52658297689314,25.030170042772873,121.52684700387282,25.03166695892315
ZHAIQ40,金山南路  信義路-愛國東路,49.0,0.625,6.0,0,121.52727297260085,25.034048955862758,121.52684700387282,25.03166695892315
ZIXJ740,金山南路  忠孝東路-仁愛路,36.705883,1.875,17.0,0,121.52919501320513,25.040822037925096,121.52875304380184,25.03946100243431
ZJBJ900,金山南路  仁愛路-忠孝東路,55.4,0.9,15.0,0,121.52875304380184,25.03946100243431,121.52919501320513,25.040822037925096
ZKVJB60,長安東路  林森北路-新生北路,43.76923,1.4,13.0,0,121.53145696820022,25.048461017083827,121.5296029732896,25.04815201688903
ZL6IA60,長安東路  中山北路-林森北路,44.57143,3.0,21.0,0,121.52845302947429,25.048237003662038,121.52457200838731,25.049127024534407
ZLBHN20,長安西路  承德路-中山北路,39.625,1.25,8.0,0,121.51702800056215,25.050877024963963,121.52162196676282,25.04981397719494
ZLBHN60,長安東路  林森北路-中山北路,45.857143,2.0,14.0,0,121.52283996548555,25.04953000524622,121.52162196676282,25.04981397719494
ZLGGY60,長安西路  中山北路-承德路,47.6,1.25,5.0,0,121.51997799502361,25.050189982604238,121.51839400159723,25.050620019395865
ZLIGO20,長安西路  重慶北路-承德路,45.714287,0.25,7.0,0,121.51545399357221,25.05123504200777,121.51702800056215,25.050877024963963
ZLKGF40,長安西路  承德路-重慶北路,43.666668,0.33333334,3.0,0,121.51612798290391,25.053616025112866,121.51545399357221,25.05123504200777
ZMDL800,長春路    復興北路-建國北路,27.0,1.8,11.0,1,121.53912200106468,25.056133971785403,121.53907596125859,25.054671954736133
ZMDL820,長春路    新生北路-松江路,69.70588,1.8,18.5,0,121.53684596290076,25.054734019705542,121.53907596125859,25.054671954736133
ZMDLH20,長春路    建國北路-復興北路,41.68421,3.2,20.0,0,121.53907596125859,25.054671954736133,121.54050300232797,25.054639955022303
ZMEJE20,長春路    松江路-新生北路,52.42857,3.75,24.0,0,121.52756002884725,25.054866963771946,121.53013697345968,25.054840002719146
ZMEKD00,長春路    建國北路-松江路,50.75,1.4,12.0,0,121.53479295680735,25.052006013135774,121.53482397530914,25.0547690306678
ZMFHU60,長春路    新生北路-中山北路,62.785713,1.4,14.5,0,121.5254589787148,25.05490998252068,121.52271397468238,25.05499198355926
ZMFIG20,長春路    中山北路-新生北路,41.615383,2.25,13.0,0,121.52271397468238,25.05499198355926,121.5254589787148,25.05490998252068
ZGYS640,松仁路往南   信義路-松平路,56.076923,0.1,13.0,0,121.56829704186002,25.031875999240825,121.56831002188507,25.030413043124604
ZHXS600,信義路   松仁路-松德路,42.24,1.5333333,28.5,0,121.5682919950669,25.032823964455297,121.56833098801957,25.034792021521046
ZI9S600,松仁路住北   信義路-松壽路,45.695652,1.3333333,23.5,0,121.5682919950669,25.032823964455297,121.56835496945864,25.03580298143268
ZI9S640,松仁路往南 松高路-松壽路,48.80645,0.53333336,31.0,0,121.56843901241747,25.039052035767867,121.56835496945864,25.03580298143268
ZJES800,松仁路往北 松高路-忠孝東路,56.5,0.33333334,16.0,0,121.57019196588068,25.040986981132097,121.56868600302879,25.041037983209243
ZI9R760,松壽路   松智路-市府路,43.07143,0.2,14.0,0,121.56546202628577,25.035850039574473,121.56352904749741,25.035884015026262
ZI9RI20,松壽路往東 市府路-松智路,47.42857,0.4,14.0,0,121.56133995822422,25.03592904442649,121.56546202628577,25.035850039574473
ZI9RW20,松壽路   松智路-松仁路,31.25,1.4666666,21.0,0,121.56352904749741,25.035884015026262,121.56757198123873,25.035815002042522
ZIWR760,松高路往西   松仁路-市府路,40.5,0.5833333,6.5,0,121.56552603729767,25.039090957289527,121.56360404902071,25.0391340109023
ZI9RI40,松智路往南 松高路-松壽路,52.695652,0.13333334,23.5,0,121.56552603729767,25.039090957289527,121.56546202628577,25.035850039574473
ZIWRJ00,松智路往北   松高路-松壽路,58.8,0.0,5.0,0,121.56546202628577,25.035850039574473,121.56552603729767,25.039090957289527
ZSM4D60,康湖路  康樂隧道住西,52.57143,0.625,4.0,0,121.62328997197012,25.078292958775315,121.61429704131653,25.0783040001469
ZTEZS60,康湖路  成功隧道往西,55.375,0.6875,4.0,0,121.61429704131653,25.0783040001469,121.60672897107345,25.081553959147826
ZM210E0,復北地下道往南,75.2,0.625,5.0,0,121.54368501551913,25.05070700485409,121.54363999683927,25.047870011386653
ZHKPV60,信義路   光復南路-基隆路,32.48387,1.0666666,34.5,0,121.55957298213816,25.033019012350127,121.55747202969788,25.03306302026789
ZHKQD60,信義路往西 松智路-基隆路,34.285713,2.3333333,7.0,0,121.5613460002809,25.03296700513491,121.55957298213816,25.033019012350127
ZHKQP20,信義路   基隆路-松智路,44.75,1.2,24.0,0,121.55957298213816,25.033019012350127,121.5613460002809,25.03296700513491
ZIBHV20,信義路　紹興南(往東),62.5,0.0,2.0,0,121.52108199179364,25.037022980346425,121.52274396749837,25.036214003806357
ZIGHK20,信義路　林森南(往東),0.0,0.33333334,2.0,2,121.51774200175183,25.039273984280122,121.52108199179364,25.037022980346425
ZLMR820,南京東　三民路(往東),49.0,1.0,1.0,0,121.5608260317364,25.051458960337836,121.56380899075694,25.05140198588456
ZM6GJ00,南京西路  重慶北路-承德路,44.5,1.0,16.0,0,121.51545399357221,25.05123504200777,121.51612798290391,25.053616025112866
ZM7FI60,南京西路  西寧北路-重慶北路,53.0,1.0,3.0,0,121.51175796897174,25.053857029027665,121.51104400418862,25.053813985753266
ZM7FN60,南京西路  重慶北路-西寧北路,45.666668,1.0,3.0,0,121.51434504252059,25.05402802231885,121.51175796897174,25.053857029027665
ZM9QH20,健康路    光復北路-三民路,55.8,0.4,7.5,0,121.55807101807514,25.05377103612993,121.56048002986392,25.053961033312216
ZMBWS20,南港路    東新街-向陽路,42.0,1.0,1.0,0,121.58977397521255,25.053369026049477,121.5918690395141,25.054073995020865
ZMH3J60,南港路惠民街往西,21.11111,0.6,9.5,1,121.61322296770172,25.055304999312977,121.61030702287725,25.05495598120642
ZFVKW40,建國南路  和平東路-信義路,56.153847,0.9,13.0,0,121.53780400844583,25.033479013506064,121.53767102477072,25.025633994351345
ZGLKW40,建國北路  忠孝東路-長安東路,16.0,1.3333334,6.0,1,121.53780400844583,25.033479013506064,121.53770395512332,25.02875696332001
ZHMKW40,建國南路  信義路-和平東路,53.333332,0.5555556,6.0,0,121.53788296664486,25.03806499347676,121.53780400844583,25.033479013506064
ZINKW00,建國南路  信義路-仁愛路,48.0,0.5,2.0,0,121.53780400844583,25.033479013506064,121.53788296664486,25.03806499347676
ZJ7KV40,建國南路  仁愛路-忠孝東路,37.214287,1.3,14.5,0,121.53707701611087,25.04170604350189,121.53771404500763,25.040141972562893
ZJHKR40,建國南路  忠孝東路-仁愛路,43.333332,0.6666667,12.0,0,121.53670903176034,25.04837000013534,121.53707701611087,25.04170604350189
ZK7KP40,建國北路  長安東路-忠孝東路,31.23077,6.0,17.5,0,121.53666002340063,25.046058991395828,121.53665495260495,25.044894027352036
ZLAKQ20,建國北路  長安東路-南京東路,31.84375,1.1333333,32.5,0,121.53670903176034,25.04837000013534,121.53675502774509,25.049669965911693
ZLRKQ40,建國北路  南京東路-長安東路,49.285713,0.625,7.0,0,121.53684596290076,25.054734019705542,121.53678501230145,25.05198104221491
ZMEKQ40,建國北路  民生東路-南京東路,37.636364,0.7,11.0,0,121.5370179999379,25.062371042456935,121.53684596290076,25.054734019705542
ZN5KR40,建國北路  民權東路-民生東路,70.0,0.5,3.0,0,121.53696904922569,25.060259016378698,121.53691903993311,25.05785800541296
ZNLKR60,建國北路  民生東路-民權東路,36.0,0.375,5.5,0,121.53691903993311,25.05785800541296,121.53696904922569,25.060259016378698
ZP5KR40,建國北路  民權東路-民生東路,49.0,0.0,1.0,0,121.5333069910677,25.068207961234386,121.5370179999379,25.062371042456935
ZPLKP40,建國北路  民權東路-民族東路,52.285713,0.625,7.0,0,121.5333069910677,25.068207961234386,121.53673198813472,25.064881964636626
ZDKJT00,思源街    永福橋-汀州路,65.0,0.5,1.0,0,121.53629898805808,25.010950043848737,121.53222501100623,25.015082041963723
ZHX4E40,研究院路  舊莊路-研究院路,65.0,1.0,1.0,0,121.61691200496752,25.036050986722422,121.6143679569269,25.03461695536284
ZJM4U00,研究院路  研究院路-舊莊路,35.0,2.5,4.5,0,121.61700299433309,25.038353019596762,121.61608899081473,25.04381902014367
ZJT4T00,胡適國小　研究(往北),70.0,0.5,1.0,0,121.62033997544226,25.039856009401756,121.61692496247355,25.0425240066233
ZKE4M40,研究院路  忠孝東路-舊莊路,65.2,1.0,5.0,0,121.61542095590151,25.046935994390502,121.61542199867544,25.045238998741045
ZKP4L00,研究院路  舊莊路-忠孝東路,37.0,1.0,1.0,0,121.61692496247355,25.0425240066233,121.61542095590151,25.046935994390502
ZMZZC20,重陽路    向陽路-興華路,68.0,1.0,2.0,0,121.6044230283074,25.057688981924624,121.60536596920677,25.057828957068374
ZMZZC60,重陽路    三重路-興華路,62.0,1.0,2.0,0,121.60667495776318,25.058094996725714,121.60536596920677,25.057828957068374
ZND3C20,重陽路    興華路-向陽路,70.0,1.0,3.0,0,121.60667495776318,25.058094996725714,121.60914704538344,25.058824991316587
ZFVGM00,中正橋(往北),58.5,0.0,12.0,0,121.51683499612176,25.02388403899003,121.51637697885918,25.02567301697802
ZFVGM40,中正橋(往南),72.89474,0.2,19.0,0,121.5159579781616,25.027245995689892,121.51637697885918,25.02567301697802
ZGBGJ40,重慶南路  寧波西路-和平西路,50.6,1.0,10.0,0,121.51528503462727,25.029776020844256,121.5159579781616,25.027245995689892
ZGSGF00,重慶南路  和平西路-寧波西路,47.38889,1.25,18.0,0,121.5159579781616,25.027245995689892,121.51528503462727,25.029776020844256
ZGSGF40,重慶南路  南海路-寧波西路,52.6,0.75,5.0,0,121.51441195137427,25.031890990911243,121.51528503462727,25.029776020844256
ZHBGA00,重慶南路  寧波西街-南海路,51.0,0.9,22.0,0,121.51528503462727,25.029776020844256,121.51441195137427,25.031890990911243
ZHBGA40,重慶南路  愛國西路-南海路,50.5,0.625,6.0,0,121.5124640292973,25.035283983210842,121.51441195137427,25.031890990911243
ZHYFT00,重慶南路  南海路-愛國西路,51.5,0.5,6.0,0,121.51441195137427,25.031890990911243,121.5124640292973,25.035283983210842
ZHYFT40,重慶南路  凱達格蘭-愛國西路,46.833332,0.625,6.0,0,121.5128250070564,25.038758016331496,121.5124640292973,25.035283983210842
ZISFV00,重慶南路  愛國西路-凱達格蘭,49.0,0.5,4.0,0,121.5124640292973,25.035283983210842,121.5128250070564,25.038758016331496
ZJLFX40,重慶南路  忠孝西路-貴陽街,41.75,1.0,4.0,0,121.51320097688081,25.04342397453304,121.51318597572667,25.042295965671663
ZJTFX00,重慶南路  凱達格蘭-忠孝西路,39.75,0.6666667,4.0,0,121.51318597572667,25.042295965671663,121.51320097688081,25.04342397453304
ZLMG600,重慶北路  南京西路-忠孝西路,48.0,1.0,2.0,0,121.51365702264522,25.050626995905596,121.51392899366638,25.051583032301906
ZM8GA00,重慶北路  忠孝西路-南京西路,40.5,1.5,2.0,0,121.51392899366638,25.051583032301906,121.51434504252059,25.05402802231885
ZNNFY00,重慶北路  民權西路-南京西路,46.444443,0.77777785,9.0,0,121.5136429933112,25.05922195875755,121.51356098217221,25.060757015255753
ZP8FZ00,重慶北路  南京西路-民權西路,58.6,0.44444445,5.0,0,121.51356098217221,25.060757015255753,121.51357999132867,25.062986973919234
ZP8FZ40,重慶北路  民族西路-民權西路,37.0,0.9166667,5.5,0,121.51365597762539,25.064666022562218,121.51357999132867,25.062986973919234
ZQGFY00,重慶北路  民權西路-民族西路,49.0,0.4166667,6.0,0,121.51372595918745,25.067209980390885,121.5137320012305,25.06861102504049
ZQGFY40,重慶北路　民族往南,48.909092,0.5833334,11.0,0,121.51373999257639,25.070503008752762,121.5137320012305,25.06861102504049
ZT9FV00,重慶北路  酒泉街-後港街,49.2,0.6666667,15.0,0,121.51379003465898,25.072898973329224,121.51311996314324,25.081036020512137
ZTGFS00,重慶北路  後港街-中正路,49.36,1.4166666,25.0,1,121.51311996314324,25.081036020512137,121.51190303950388,25.08394698422731
ZN0A0E0,新生高   濟南-八德路,101.666664,1.4,40.0,0,121.52961198626582,25.041760014603856,121.5304510432061,25.044519975119794
ZN0B0E0,新生高    八德路-長安東路,50.875,0.75,16.0,0,121.5304510432061,25.044519975119794,121.52992903546422,25.04822298840473
ZN0C0E0,新生高    長安東路-民生東路,76.61539,1.0,26.0,0,121.52992903546422,25.04822298840473,121.5278349910055,25.058021025325676
ZN0D0E0,新生高    民生東路-民權東路,97.42857,0.5,14.0,0,121.5278349910055,25.058021025325676,121.52792001560219,25.062620972092148
ZN0E0E0,新生高    民權東路-民族東路,67.46154,0.3,26.0,0,121.52792001560219,25.062620972092148,121.52806304007565,25.068378015720075
ZN0F0E0,新生高    民族東路-中山北路,50.679485,2.8000002,78.0,1,121.52806304007565,25.068378015720075,121.52651504814715,25.074493968596233
ZN2C0E0,新生高    常春路-長安東路,72.333336,0.3,15.0,0,121.52727598359927,25.054867972439954,121.52931504860655,25.04812297959867
ZN2D0E0,新生高    長安東路-八德路,57.05,0.9333334,20.0,0,121.52931504860655,25.04812297959867,121.53005504321128,25.044338028194918
ZN2E0E0,新生高    八德路-濟南路,61.125,0.7,8.0,0,121.53005504321128,25.044338028194918,121.52934596331193,25.041820006265898
ZIME520,桂林路    康定路-中華路,46.0,0.0,1.0,0,121.50179403644765,25.038307978398098,121.50384396340075,25.037993995771195
ZIME560,桂林路    中華路-康定路,32.0,0.25,4.0,0,121.50516097146729,25.03775497407914,121.50384396340075,25.037993995771195
ZIQDB00,桂林路    環河南路-康定路,33.477272,5.1,44.5,0,121.49935900699977,25.036664036196214,121.49980197241737,25.038451016609155
ZM7PP60,健康路    三民路-光復北路,51.8,0.7,12.5,0,121.55807101807514,25.05377103612993,121.55659404607604,25.05365000514917
ZM8PX60,健康路    塔悠路-三民路,61.0,0.5,1.5,0,121.56048002986392,25.053961033312216,121.55807101807514,25.05377103612993
ZMCSE20,健康路    三民路-塔悠路,64.42857,1.1666666,9.5,0,121.56726102277293,25.05429595959786,121.56983899214136,25.054476040908757
ZRKQZ40,基湖路    堤頂大道-樂群一路,44.0,3.0,3.5,0,121.56434000263994,25.07868300989287,121.56319803299263,25.07606001695905
ZSPRA00,基湖路    樂群一路-堤頂大道,42.0,1.0,4.0,0,121.56319803299263,25.07606001695905,121.56434000263994,25.07868300989287
ZSPRA40,基湖路    內湖路-堤頂大道,45.5,0.0,2.0,0,121.56501403230388,25.080810963818113,121.56434000263994,25.07868300989287
ZCNKM20,福和橋(往東),32.666668,0.8,16.0,0,121.52719196557328,25.005827999240466,121.53629898805808,25.010950043848737
ZEFMN40,基隆路    台科大-辛亥路,49.25,1.1666666,8.0,0,121.54869795558517,25.020952993094944,121.54664904866901,25.01914598458858
ZF9NH00,基隆路    和平東路-辛亥路,64.083336,0.2,12.5,0,121.54869795558517,25.020952993094944,121.55027003192343,25.02233795951411
ZFMNV00,基隆路    辛亥路-樂業街,30.0,0.0,1.0,1,121.55027003192343,25.02233795951411,121.55253801802745,25.024342990433986
ZG7PG50,基隆路   光復南路-和平東路,45.404762,1.875,43.0,0,121.5560589754595,25.027434978203733,121.55502503173419,25.026517978774507
ZGTPW00,基隆路往北 和平-光復,44.96,2.1,50.0,0,121.55725603522725,25.029163975406764,121.55739597463773,25.029388971894342
ZGTPW50,基隆路往南   信義路-光復南路,53.787235,1.3333333,47.5,0,121.55897296530517,25.03201003670589,121.55739597463773,25.029388971894342
ZI9QP10,基隆路   信義路-松壽路,56.0,0.4,15.5,0,121.55957298213816,25.033019012350127,121.56133995822422,25.03592904442649
ZI9QP12,基隆路地下道 松高路-忠孝東路,38.0,0.0,1.0,0,121.55957298213816,25.033019012350127,121.56133995822422,25.03592904442649
ZIKQU50,基隆路   忠孝東路-松高路,48.82353,1.1,18.0,0,121.56446498833695,25.04114399820202,121.56230804538679,25.037522989396912
ZJERC40,基隆路    松隆路-忠孝東路,55.925926,1.5,29.0,0,121.56583301522926,25.043405015078875,121.56446498833695,25.04114399820202
ZJERC50,基隆路地下道 松隆路-忠孝東路,73.30769,0.5,13.0,0,121.56583301522926,25.043405015078875,121.56446498833695,25.04114399820202
ZJERC51,基隆路地下道 忠孝東路-仁愛路,81.23529,0.5,17.0,0,121.56583301522926,25.043405015078875,121.56446498833695,25.04114399820202
ZJERC52,基隆路地下道 仁愛路-莊敬路,70.5,1.2,30.0,0,121.56583301522926,25.043405015078875,121.56446498833695,25.04114399820202
ZJVRL10,基隆路地下道 忠孝東路-松隆路,69.72222,0.7,18.5,0,121.56446498833695,25.04114399820202,121.56583301522926,25.043405015078875
ZJVRL11,基隆路地下道 莊敬路-仁愛路,77.52941,0.6,17.0,0,121.56446498833695,25.04114399820202,121.56583301522926,25.043405015078875
ZL9SB00,基隆路    永吉路-南京東路,46.541668,2.1666667,27.0,0,121.56866899921893,25.048116032637356,121.5693889525814,25.049394985048043
ZIDDL00,康定路    艋舺大道-桂林路,48.75,1.0,8.0,0,121.50122598776412,25.035205036607337,121.50146902851584,25.036584976685717
ZH6DG20,莒光路    西園路-萬大路,37.5,0.5,2.0,0,121.49912804831277,25.031112969655393,121.50058495189656,25.03115302988177
ZH6DG60,莒光路    中華路-萬大路,43.0,0.0,1.0,0,121.50226002925922,25.031211026896653,121.50058495189656,25.03115302988177
ZH7E720,莒光路    萬大路-中華路,53.0,2.0,3.0,0,121.50226002925922,25.031211026896653,121.5041230066862,25.031250040710702
ZH7E760,莒光路    和平西路-中華路,53.0,0.0,1.0,0,121.50675896035203,25.031231958055447,121.5041230066862,25.031250040710702
ZPMSV40,堤頂大道  舊宗路-民權東路,54.75,0.5833334,12.0,0,121.57464403660268,25.068974033533877,121.57243400074799,25.064892972890718
ZPMSV41,堤頂大道  港墘路-舊宗路,46.666668,0.6666666,15.0,0,121.57464403660268,25.068974033533877,121.57243400074799,25.064892972890718
ZRPSV00,堤頂大道  舊宗路-港墘路,49.545456,0.6,11.0,0,121.57645699757894,25.068940011375336,121.57310499011851,25.07274502194221
ZRPSV01,堤頂大道  民權東路-高速公路,57.375,0.5,8.0,0,121.57645699757894,25.068940011375336,121.57310499011851,25.07274502194221
ZRRST60,港墘路    瑞光路-堤頂大道,39.933334,1.75,16.0,0,121.5749259738558,25.0763489994483,121.5722510183189,25.074554007236674
ZSGRX60,堤頂大道  港墘路-樂群一路,49.363636,1.0,11.0,0,121.56861595182252,25.07735799072377,121.56942604167378,25.078862019411563
ZSPRA60,堤頂大道  樂群一路-基湖路,59.5,1.0,6.0,0,121.56942604167378,25.078862019411563,121.56434000263994,25.07868300989287
ZT5QV00,堤頂大道  基湖路-樂群二路,70.0,0.5,1.0,0,121.56434000263994,25.07868300989287,121.55967599108925,25.07988297867843
ZTXQL00,堤頂大道  樂群二路-內湖路,59.25,0.6666667,4.0,0,121.55967599108925,25.07988297867843,121.56079802575908,25.084491962912818
ZEWM500,復興南路  和平東路-辛亥路,42.5,0.375,10.5,0,121.54664904866901,25.01914598458858,121.54335897854092,25.021243986424103
ZFQM600,復興南路  辛亥路-和平東路,25.6,0.16666667,5.0,1,121.54335897854092,25.021243986424103,121.54342402312793,25.024854985530066
ZHLM800,復興南路  信義路-和平東路,53.733334,0.6,30.0,0,121.54345099657831,25.02652499309027,121.54351497502647,25.02980204462401
ZHMM600,復興南路  和平東路-信義路,56.894737,0.33333334,19.5,0,121.54351497502647,25.02980204462401,121.54358999788747,25.033358021920662
ZIAM700,復興南路  仁愛路-信義路,33.0,5.866667,22.5,0,121.54358999788747,25.033358021920662,121.543641970198,25.036066977420735
ZJHM700,復興南路  八德路-仁愛路,57.3,0.9333333,20.5,0,121.54367997231617,25.03794395576117,121.5437659952972,25.041609038088943
ZK8M700,復興南路  仁愛路-八德路,52.35294,0.9333333,17.0,0,121.5437659952972,25.041609038088943,121.54385897456255,25.044804994773564
ZLZM900,復興北路  民生東路-八德路,49.8125,0.33333334,16.0,0,121.54397996499858,25.049877961724643,121.54403901667754,25.051827986562063
ZMQMV00,復興北路  長安東路-民生東路,47.3,0.33333334,20.0,0,121.54403901667754,25.051827986562063,121.5440800095024,25.05453598213365
ZMZM900,復興北路  民族東路-民生東路,42.7,1.3333334,23.5,0,121.54412700592118,25.056088996135735,121.5441439542754,25.05775000507868
ZFNN700,敦化南路  和平東路-基隆路,56.5,0.0,4.0,0,121.54869795558517,25.020952993094944,121.5487239773303,25.024555013616336
ZG8N700,敦化南路  基隆路-和平東路,39.47059,2.3333333,18.0,0,121.5487239773303,25.024555013616336,121.54877701815931,25.029909012062145
ZGHN840,敦化南路  信義路-和平東路,40.416668,1.0,12.0,0,121.54877202330563,25.030946988637076,121.54875004072608,25.028121010187427
ZHLN700,敦化南路  和平東路-信義路,40.466667,1.625,15.0,0,121.54877202330563,25.030946988637076,121.54880198301072,25.03324903739577
ZHLN740,敦化南路  仁愛路-信義路,68.833336,1.0,12.0,0,121.54883299074633,25.037835002817864,121.54880198301072,25.03324903739577
ZI6NV00,敦化南路  信義路-仁愛路,68.666664,0.16666667,6.0,0,121.54880198301072,25.03324903739577,121.54884102942171,25.03538800488908
ZIMN840,敦化南路  忠孝東路-仁愛路,59.666668,0.25,3.0,0,121.54886902213435,25.04149999402469,121.54883299074633,25.037835002817864
ZJGN700,敦化南路  仁愛路-忠孝東路,69.75,0.125,8.0,0,121.54883299074633,25.037835002817864,121.54886902213435,25.04149999402469
ZJGN740,敦化南路  市民大道-忠孝東路,70.375,0.0,8.0,0,121.54881399084826,25.042584016390858,121.54886902213435,25.04149999402469
ZJGPQ00,敦化南路  忠孝東路-市民大道,60.2,0.0,5.0,0,121.54886902213435,25.04149999402469,121.54888304040203,25.044805025684436
ZKWN800,敦化南路  市民大道-南京東路,74.17647,0.9,19.5,0,121.54881399084826,25.042584016390858,121.54891799098887,25.04818102933539
ZLPN800,敦化北路  南京東路-民生東路,69.583336,0.33333334,12.0,0,121.54891799098887,25.04818102933539,121.54895396845498,25.051719983982125
ZLPN840,敦化北路　南京往南,68.5,0.0,2.0,0,121.5489759600192,25.054409990941007,121.54895396845498,25.051719983982125
ZMYN840,敦化北路　民生往南,55.0,0.0,1.5,0,121.55077102013237,25.061480969774898,121.54901002468907,25.057695983841906
ZNUNJ00,敦化北路  民生東路-民權東路,43.8,0.4,11.0,0,121.54901002468907,25.057695983841906,121.55077102013237,25.061480969774898
ZRRST40,堤頂大道  樂群一路-港墘路,46.5,1.0,8.0,0,121.56861595182252,25.07735799072377,121.5722510183189,25.074554007236674
ZS9TE00,港墘路    堤頂大道-瑞光路,35.0,1.0,2.0,0,121.5722510183189,25.074554007236674,121.5749259738558,25.0763489994483
ZSKTL00,港墘路    瑞光路-內湖路,54.25,1.0,12.5,0,121.5749259738558,25.0763489994483,121.57646395746534,25.07878998166421
ZN7ST40,塔悠路    民生東路-南京東路,67.0,0.33333334,1.0,0,121.56933603662438,25.057313041042693,121.56921998023635,25.057935968235675
ZPDS600,塔悠路    民生東路-民權東路,41.2,1.125,10.5,0,121.5689879525167,25.059200961326518,121.56825498921555,25.063537037590514
ZDTJW60,新生南路 辛亥路-羅斯福路,53.833332,0.8333334,6.5,0,121.53375797186791,25.019120959200524,121.53267604893776,25.01635302943908
ZF9KB00,新生南路  羅斯福路-辛亥路,49.75,0.77777785,8.5,0,121.534021047706,25.020384039511818,121.53442604525193,25.022386010516612
ZFYKD00,新生南路  和平東路-信義路,38.0,0.33333334,1.0,0,121.53462195960185,25.023993030218598,121.53486796787674,25.026023015919595
ZFYKD40,新生南路  信義路-和平東路,25.5,46.8,34.0,1,121.53450104160568,25.028263032650422,121.53486796787674,25.026023015919595
ZHNJV00,新生南路  和平東路-信義路,69.5,0.16666667,8.0,0,121.53366899555719,25.03062298678824,121.53273104210257,25.03356896780886
ZHNJV40,新生南路  仁愛路-信義路,57.0,0.0,4.0,0,121.53274599843577,25.0370089766945,121.53273104210257,25.03356896780886
ZINJW00,新生南路  信義路-仁愛路,65.2,0.0,5.0,0,121.53274599843577,25.0370089766945,121.53278995384001,25.03814599666556
ZJWJ700,濟南路　新生南(往北),40.75,1.0,4.5,0,121.53278995384001,25.03814599666556,121.532799029026,25.04013196180549
ZJWJ740,濟南路　新生南(往南),42.0,10.5,9.0,0,121.5328679510871,25.042298995618633,121.532799029026,25.04013196180549
Z1TT960,新光路    秀明路-指南路,38.0,0.5,1.0,0,121.57369500163014,24.99083998860685,121.57368301681147,24.988087005262916
Z2AT940,新光路    動物園-秀明路,38.0,0.5,1.0,0,121.57476698599532,24.991260984932012,121.5736689894837,24.991616956925604
Z2ZUI60,新光路    木柵路-動物園,35.0,0.0,2.0,0,121.55630597964726,24.98330496820087,121.58006203846217,24.99864301915613
ZRGUF00,瑞光路    民權東路-陽光街,33.0,1.25,7.0,0,121.58334895341292,25.069627024805186,121.58078401670525,25.072154989668217
ZS6TI00,瑞光路    陽光街-港墘路,38.0,1.0,2.0,0,121.5769419783538,25.075114001577557,121.57541995087333,25.07605800881801
ZGQDF40,萬大路    莒光路-西藏路,32.285713,0.33333334,7.0,0,121.50052198366241,25.03028699357729,121.50053797666632,25.029392974905242
ZH6DG00,萬大路    西藏路-莒光路,48.666668,0.0,6.0,0,121.50052198366241,25.03028699357729,121.50058495189656,25.03115302988177
ZWLJQ20,中正路    文林路-雨農路,46.4,1.5,15.5,0,121.52791400466089,25.09575398777621,121.53208100495699,25.09651496797562
ZWLJQ60,福林路    至善路-雨農路,58.5,1.0,12.0,0,121.53646502128419,25.099216970262155,121.53208100495699,25.09651496797562
ZX9KL00,福林路  雨農路-至善路,37.31818,2.4,24.5,0,121.53208100495699,25.09651496797562,121.53646502128419,25.099216970262155
ZGBBW60,艋舺大道  西園路-西藏路,33.6875,3.4166667,34.5,0,121.4914129896358,25.03203201212731,121.49356701052828,25.030436014066186
ZH9H820,艋舺大道  西藏路-西園路,41.88889,1.2,19.0,0,121.5175779580887,25.030716005251556,121.5190779651719,25.031604014836642
ZHPEB20,艋舺大道  西園路-和平西路,57.0,0.75,3.0,0,121.50227800231582,25.033142983705613,121.50485700372295,25.03377497051753
ZZLKH60,德行東路  忠誠路-東山路,43.0,1.0,3.0,0,121.53764399489197,25.110289966397332,121.53590703827052,25.110024962792544
ZRKQZ20,樂群一路  敬業三路-堤頂大道,56.0,1.0,4.0,0,121.55633300899231,25.07706996007332,121.56319803299263,25.07606001695905
ZLQLI40,龍江路    民生東路-南京東路,45.6,0.25,5.0,0,121.54050300232797,25.054639955022303,121.540450964514,25.051904010669126
ZMZLI00,龍江路    南京東路-民生東路,48.142857,0.2,7.0,0,121.54054895992677,25.05610197171318,121.54069500275752,25.057808013132966
ZNZLJ40,龍江路    民族東路-民權東路,75.0,0.0,3.0,0,121.54093200927338,25.06427096213402,121.54083295636913,25.062186024839196
ZJBJ960,濟南路    新生南路-杭州南路,32.5,0.0,2.0,0,121.532799029026,25.04013196180549,121.52919501320513,25.040822037925096
ZJMHU60,濟南路    杭州南路-中山南路,51.0,0.0,1.0,0,121.52441299463355,25.041986011155554,121.5226509629361,25.04239803243175
ZJWJ720,濟南路    杭州南路-新生南路,38.0,0.0,1.0,0,121.52919501320513,25.040822037925096,121.532799029026,25.04013196180549
ZHPBV00,環河南路  雙園街-和平西路,42.5,1.0,2.0,0,121.49213996636615,25.032861006945804,121.49306499947929,25.033878028859224
ZQGF700,環河北路  民權西路-民族西路,58.864864,1.3333334,37.0,0,121.50845500719667,25.06047702032524,121.50915295975493,25.068699023891476
ZR9F600,環河北路  民族西路-敦煌路,87.07692,0.33333334,14.0,0,121.50915295975493,25.068699023891476,121.50913801482358,25.07215700540141
ZU8EF00,環河北路  敦煌路-葫蘆街,45.305557,1.6666667,36.0,0,121.50883195439488,25.07502004121494,121.50562498829241,25.08565702447709
ZU8EF40,環河北路  葫蘆街-敦煌路,61.72222,0.9,36.0,0,121.54469597066524,24.996347968091932,121.50562498829241,25.08565702447709
ZPRT940,舊宗路    陽光街-民權東路,48.5,1.0,2.0,0,121.57464403660268,25.068974033533877,121.57506401354928,25.065704990922654
ZQRTE00,舊宗路    民權東路-陽光街,50.42857,0.625,7.0,0,121.5784390340483,25.06668496128123,121.57402397478975,25.07223599331328
ZRPSV70,舊宗路    陽光街-港墘路,50.88889,0.5,9.0,0,121.57353298304066,25.07305898792422,121.57310499011851,25.07274502194221
Z1XLD00,羅斯福六段　　338巷(往北),38.75,1.0,8.5,0,121.53962799425766,24.98840398461491,121.53959302389619,24.98937896964493
Z2KLN40,羅斯福路  景隆街-景中路,39.0,0.9333334,16.0,0,121.54089503868178,24.997165970598836,121.54115702921119,24.995937012123463
Z2TLL00,羅斯福路  景中街-景隆街,34.4,0.75,10.5,0,121.54115702921119,24.995937012123463,121.54089503868178,24.997165970598836
Z2WKS40,羅斯福路  興隆路-景隆街,26.6,0.9166667,15.0,1,121.53957201085308,25.000493034565338,121.53992495498447,24.999624963855496
ZB9L800,羅斯福路  景隆街-興隆路,22.941177,1.1666666,17.0,1,121.53887597648833,25.00217496894028,121.53877702757927,25.004360042220245
ZCPKT00,基隆路    羅斯福路-台科大,45.0,0.5,1.0,0,121.53821804880279,25.007991008002687,121.53715196399625,25.011119041172332
ZCPKT40,羅斯福路  新生南路-舟山路,47.5,0.8,17.0,0,121.61542199867544,25.045238998741045,121.53715196399625,25.011119041172332
ZDTJW00,羅斯福路  舟山路-新生南路,40.22222,0.6,10.5,0,121.61542199867544,25.045238998741045,121.53267604893776,25.01635302943908
ZELJA00,羅斯福路  新生南路-辛亥路,52.2,0.5,5.0,0,121.5306539552618,25.01829200472465,121.52926303613513,25.019695958506183
ZG9HT40,羅斯福路  愛國西路-和平東路,35.535713,2.266667,29.0,0,121.52169802632478,25.02803803867352,121.52242702673107,25.02703299726304
ZGTHG00,羅斯福路  和平東路-愛國東路,22.5,0.5,6.5,1,121.52169802632478,25.02803803867352,121.52038804096348,25.02983904341432
Z2ASP40,木柵路    萬芳路-秀明路,53.875,1.0,8.0,0,121.57174301518563,24.994855978192664,121.57112404201598,24.99165401180308
Z2XTE40,木柵路    北二高-萬芳路,70.0,2.0,23.5,0,121.57567799671845,24.999590032066923,121.5745709828111,24.998149997995245
Z56BU20,大度路    模構溪-貴子坑溪,46.391304,1.0,26.0,0,121.47140695947435,25.12284700882599,121.48607999189144,25.12185203778804
Z56BU21,大度路    立德路-模構溪,40.37037,0.6666666,36.5,0,121.47140695947435,25.12284700882599,121.48607999189144,25.12185203778804
ZAAPB40,辛亥路    興隆路-懷恩隧道,48.0,1.0,4.0,0,121.55459204512684,25.000826004759794,121.55408297821867,24.999861984397157
ZD9JF40,思源街    汀州路-永福橋,70.0,1.0,2.5,0,121.53222501100623,25.015082041963723,121.53003796006311,25.013373970355026
ZEGCQ40,華中橋(往南),44.285713,1.25,16.5,0,121.49729796250739,25.019392012063395,121.49567204697064,25.01670696488632
ZGNEB00,中華路    泉州街-和平西路,32.57143,2.25,14.0,0,121.505894026742,25.028002025430784,121.50479797031888,25.02918003956424
ZHHDF40,康定路    桂林路-艋舺大道,49.666668,1.0,6.0,0,121.50122598776412,25.035205036607337,121.50052302425492,25.032814954430084
ZHHDF60,艋舺大道  和平西路-西園路,44.142857,0.75,7.0,0,121.50227800231582,25.033142983705613,121.50052302425492,25.032814954430084
ZIPIZ00,金山南路  信義路-仁愛路,48.82353,1.2,18.0,0,121.52727297260085,25.034048955862758,121.5283409691468,25.038251982254266
ZJFQQ00,忠孝東　逸仙路(往北),41.0,1.1666666,6.0,0,121.56150600161838,25.037553016135945,121.56158204897511,25.041218028653063
ZJGPQ40,敦化南路  南京東路-市民大道,81.25,0.7,18.5,0,121.54891799098887,25.04818102933539,121.54888304040203,25.044805025684436
ZKGKP60,八德路    復興北路-建國北路,36.833332,1.8,14.5,0,121.54050798449423,25.04671302790662,121.53666002340063,25.046058991395828
ZMEKQ20,長春路    松江路-建國北路,64.0,1.0,6.0,0,121.53482397530914,25.0547690306678,121.53684596290076,25.054734019705542
ZMGXG40,向陽路    南京東路-重陽路,73.90909,0.875,12.0,0,121.59273800790041,25.06173503117174,121.59490500322177,25.054847031137555
ZMGXG60,重陽路    興華路-向陽路,34.0,1.0,2.0,0,121.59827099883903,25.056224002666823,121.59490500322177,25.054847031137555
ZN5KR00,建國北路  南京東路-民生東路,41.458332,1.9,24.5,0,121.53688203034464,25.05618803885665,121.53691903993311,25.05785800541296
ZN5KR20,民生東路  松江路-建國北路,23.818182,38.333336,20.125,1,121.53313299757023,25.05791597287314,121.53691903993311,25.05785800541296
ZN5KR60,民生東路  龍江路-建國北路,44.25,0.44444445,4.0,0,121.53916899194306,25.057813019497804,121.53691903993311,25.05785800541296
ZNE4D00,三重路    南港路-重陽路,69.5,1.0,2.0,0,121.6139900285907,25.05615100203839,121.61420299537697,25.059029956076365
ZNES640,塔悠路    民權東路-民生東路,40.1,2.0,11.5,0,121.56639304291653,25.061738998656676,121.56842301712018,25.059203034505646
ZNES900,塔悠路    南京東路-民生東路,42.866665,0.8666667,15.0,0,121.56933603662438,25.057313041042693,121.5689879525167,25.059200961326518
ZPBEX40,環河北路  民族西路-民權西路,51.666668,1.1,21.0,0,121.50915295975493,25.068699023891476,121.5084080301572,25.06338404171999
ZRCM940,北安路　　大直橋(往南),53.214287,0.8666667,14.0,0,121.54443904538175,25.07973201095037,121.5439410314599,25.072375994356445
ZRNIF40,中山北   圓山隧道(往南),58.822224,1.65,47.0,0,121.52439603403226,25.079777007764783,121.52537896751048,25.07426200079582
ZSHZU60,康寧路至康湖路,52.0,0.375,8.0,0,121.60672897107345,25.081553959147826,121.60709802556015,25.077511986793805
ZSMQQ40,堤頂大道  內湖路-樂群二路,54.666668,0.5,3.0,0,121.56079802575908,25.084491962912818,121.56268198592153,25.080269025306617
ZSNVA60,內湖路二段66巷至文德路(往西),35.272728,0.6,12.5,0,121.58120101629119,25.078473041935258,121.57887200799583,25.07858199341892
ZSQVZ20,文德路101巷至220巷(往東),49.25,0.25,4.0,0,121.5836189877029,25.078500026739942,121.58800199413167,25.07879897729243
ZSSWC60,文德路　成功路(往西),40.72222,1.875,21.0,0,121.59095604534718,25.080764010229363,121.58879595651594,25.078993993814933
ZSVMA00,濱江街　　大直橋(往北),53.0,0.44444445,4.0,0,121.5439410314599,25.072375994356445,121.54443904538175,25.07973201095037
ZSXTK20,內湖路一段629巷至港墘路(往東),47.2,0.16666667,5.0,0,121.57445895219264,25.080314007088656,121.5758139817656,25.079830994706555
ZT6HS40,後港街 承德路(往南),49.8,0.4166667,5.0,0,121.52312700650016,25.082164979434452,121.52241698749683,25.080732021920923
ZT8SZ60,內湖路一段洲子街至591巷(往西),45.0,0.5,4.0,0,121.57414199334896,25.08043295862299,121.57315196808811,25.080771001613048
ZTEZS20,康湖路至康寧路,47.6,0.0,5.0,0,121.60709802556015,25.077511986793805,121.60672897107345,25.081553959147826
ZTHRR20,內湖一段二八五(往東),38.6,1.0,6.0,0,121.56551700971767,25.082362044620286,121.56687397760635,25.082157980682666
ZTXQJ20,內湖路一段文湖路至91巷(往東),42.35294,0.75,19.0,0,121.55969804314074,25.084906980141785,121.56081203340702,25.08454201538177
ZTYXQ60,成功路五段324巷至420巷(往西),46.6,1.0,6.5,0,121.59877603888799,25.084677976356467,121.59651504474743,25.084461022150744
ZTZY920,成功四段三二四(往東),36.857143,0.6666667,7.0,0,121.59522498799599,25.08418696732081,121.59877603888799,25.084677976356467
ZWVFW00,承德路    中正路-洲美路,70.0,0.5,8.0,0,121.5140550171656,25.095974011667895,121.51335799172413,25.097672973052678
ZYQKQ70,仰德大道二段　2巷(嶺頭山莊)(往西),44.333332,1.0,6.0,0,121.5397580421942,25.101858985824947,121.53715895652813,25.106075018363406
ZZKPR60,至善路    中社路-至善路,49.0,1.0,2.0,0,121.55868201840038,25.111972017455297,121.55715498243822,25.109819987414784
